<?xml version="1.0" encoding="UTF-8" standalone="no"?>
<svg id="svg5409" xmlns:rdf="http://www.w3.org/1999/02/22-rdf-syntax-ns#" xmlns="http://www.w3.org/2000/svg" height="319.39" width="286.48" version="1.1" xmlns:cc="http://creativecommons.org/ns#" xmlns:xlink="http://www.w3.org/1999/xlink" xmlns:dc="http://purl.org/dc/elements/1.1/">
 <defs id="defs5411">
  <filter id="filter4756" color-interpolation-filters="sRGB">
   <feGaussianBlur id="feGaussianBlur4758" stdDeviation="5.764169"/>
  </filter>
  <linearGradient id="linearGradient7316" y2="380.72" xlink:href="#linearGradient4646" gradientUnits="userSpaceOnUse" x2="1067" gradientTransform="matrix(1.1842 0 0 1.5744 -869.55 40.667)" y1="380.72" x1="861.21"/>
  <linearGradient id="linearGradient4646">
   <stop id="stop4648-5" stop-color="#dfdfdf" offset="0"/>
   <stop id="stop4660" stop-color="#cacaca" offset=".0625"/>
   <stop id="stop4658" stop-color="#666" offset=".15156"/>
   <stop id="stop4656" stop-color="#e6e6e6" offset=".47575"/>
   <stop id="stop4662" stop-color="#e6e6e6" offset=".54985"/>
   <stop id="stop4654" stop-color="#999" offset=".71690"/>
   <stop id="stop4650-0" stop-color="#535353" offset="1"/>
  </linearGradient>
  <filter id="filter13086" height="1.4516" width="1.0692" color-interpolation-filters="sRGB" y="-.22579" x="-.034597">
   <feGaussianBlur id="feGaussianBlur13088" stdDeviation="3.575"/>
  </filter>
  <linearGradient id="linearGradient7312" y2="271.68" xlink:href="#linearGradient4646" gradientUnits="userSpaceOnUse" x2="1084" gradientTransform="matrix(1.1792 0 0 1.1922 -870.36 203.77)" y1="271.68" x1="858.09"/>
  <radialGradient id="radialGradient4715" xlink:href="#linearGradient4646" gradientUnits="userSpaceOnUse" cy="258.7" cx="1041.1" gradientTransform="matrix(1 0 0 1.3649 0 -94.399)" r="13.165"/>
  <linearGradient id="linearGradient7097" y2="84.859" gradientUnits="userSpaceOnUse" x2="317.17" gradientTransform="matrix(2.4468 0 0 2.4738 -487.98 484.01)" y1="66.206" x1="319.23">
   <stop id="stop7516" stop-color="#004000" offset="0"/>
   <stop id="stop7518" stop-color="#008000" offset="1"/>
  </linearGradient>
  <linearGradient id="linearGradient7073" y2="146.41" xlink:href="#linearGradient5152-9" gradientUnits="userSpaceOnUse" x2="1064.6" gradientTransform="matrix(.28633 1.3017 -1.2291 .53013 59.189 -740.88)" y1="120.66" x1="996.84"/>
  <linearGradient id="linearGradient5152-9">
   <stop id="stop5154-4" stop-color="#dfdfdf" offset="0"/>
   <stop id="stop5156-7" stop-color="#cacaca" offset=".0625"/>
   <stop id="stop5158-8" stop-color="#666" offset=".0625"/>
   <stop id="stop5160-3" stop-color="#e6e6e6" offset=".44450"/>
   <stop id="stop5162-5" stop-color="#e6e6e6" offset=".54985"/>
   <stop id="stop5164-1" stop-color="#999" offset=".71690"/>
   <stop id="stop5166-2" stop-color="#535353" offset="1"/>
  </linearGradient>
  <linearGradient id="linearGradient7070" y2="117.46" xlink:href="#linearGradient5152-9" gradientUnits="userSpaceOnUse" x2="1033.7" gradientTransform="matrix(.28633 1.3017 -1.2291 .53013 59.189 -740.88)" y1="147.53" x1="1022.3"/>
  <linearGradient id="linearGradient7067" y2="124.51" xlink:href="#linearGradient5152-9" gradientUnits="userSpaceOnUse" x2="1030.6" gradientTransform="matrix(.28633 1.3017 -1.2291 .53013 59.189 -740.88)" y1="140.06" x1="1025"/>
  <linearGradient id="linearGradient7064" y2="65.154" xlink:href="#linearGradient4646" gradientUnits="userSpaceOnUse" x2="1039.7" gradientTransform="matrix(1.1792 0 0 1.1922 -868.48 495.3)" y1="65.154" x1="840.96"/>
  <filter id="filter4724" color-interpolation-filters="sRGB">
   <feGaussianBlur id="feGaussianBlur4726" stdDeviation="3.9299024"/>
  </filter>
  <filter id="filter4774" color-interpolation-filters="sRGB">
   <feGaussianBlur id="feGaussianBlur4776" stdDeviation="0.47553724"/>
  </filter>
  <filter id="filter4913" color-interpolation-filters="sRGB">
   <feGaussianBlur id="feGaussianBlur4915" stdDeviation="0.20140917"/>
  </filter>
  <filter id="filter4931" color-interpolation-filters="sRGB">
   <feGaussianBlur id="feGaussianBlur4933" stdDeviation="0.51171942"/>
  </filter>
  <linearGradient id="linearGradient7054" y2="79.524" gradientUnits="userSpaceOnUse" x2="875.85" gradientTransform="matrix(1.1792 0 0 1.1922 -868.48 495.3)" y1="-24.896" x1="841.92">
   <stop id="stop5233-1" offset="0"/>
   <stop id="stop5235-6" stop-opacity="0" offset="1"/>
  </linearGradient>
  <linearGradient id="linearGradient7056" y2="84.975" gradientUnits="userSpaceOnUse" x2="871.65" gradientTransform="matrix(1.1296 0 0 1.1421 -820.34 493.06)" y1="-24.025" x1="836.24">
   <stop id="stop13113" offset="0"/>
   <stop id="stop13115" stop-opacity="0" offset="1"/>
  </linearGradient>
  <linearGradient id="linearGradient7051" y2="361.76" xlink:href="#linearGradient4646" gradientUnits="userSpaceOnUse" x2="1067.6" gradientTransform="matrix(1.2522 0 0 1.2606 -927.62 -70.756)" y1="361.76" x1="858.95"/>
  <linearGradient id="linearGradient7045" y2="301.57" gradientUnits="userSpaceOnUse" x2="966.43" gradientTransform="matrix(1.1792 0 0 1.1922 -870.36 203.77)" y1="197.57" x1="967.2">
   <stop id="stop4712" stop-color="#866142" offset="0"/>
   <stop id="stop4714" stop-color="#d5b771" offset="1"/>
  </linearGradient>
  <linearGradient id="linearGradient7042" y2="160.09" xlink:href="#linearGradient4646" gradientUnits="userSpaceOnUse" x2="1086.5" gradientTransform="matrix(1.1589 0 0 1.1922 -853.06 203.77)" y1="156.12" x1="853.97"/>
  <filter id="filter4770" color-interpolation-filters="sRGB">
   <feGaussianBlur id="feGaussianBlur4772" stdDeviation="0.49688389"/>
  </filter>
  <linearGradient id="linearGradient7037" y2="-66.914" gradientUnits="userSpaceOnUse" x2="975.05" gradientTransform="matrix(1.1296 0 0 1.1421 -820.34 493.06)" y1="-90.243" x1="974.52">
   <stop id="stop4843" stop-color="#edd7a2" offset="0"/>
   <stop id="stop4845" stop-color="#edd7a2" stop-opacity="0" offset="1"/>
  </linearGradient>
  <filter id="filter13105" color-interpolation-filters="sRGB">
   <feGaussianBlur id="feGaussianBlur13107" stdDeviation="4.3738617"/>
  </filter>
  <filter id="filter7320" color-interpolation-filters="sRGB">
   <feGaussianBlur id="feGaussianBlur7322" stdDeviation="0.35094648"/>
  </filter>
  <linearGradient id="linearGradient7332" y2="-62.295" gradientUnits="userSpaceOnUse" x2="916.56" gradientTransform="translate(-728.21 766.54)" y1="-38.738" x1="914.96">
   <stop id="stop7328" stop-color="#333" offset="0"/>
   <stop id="stop7330" stop-color="#333" stop-opacity="0" offset="1"/>
  </linearGradient>
 </defs>
 <g id="layer1" transform="translate(-223.32 -414.36)">
  <g id="g17171" transform="matrix(.81263 0 0 .81263 164.54 130.99)">
   <path id="path4949" opacity=".89823" fill="#4d4d4d" d="m208.13 725.97-0.1872 5.4902-44.192 2.2718-2.1534-5.6795z"/>
   <path id="path4740" opacity=".45575" d="m1085.2 121.81c-1.1618 37.97-53.98 71.092-118.67 71.092s-117.13-30.795-117.13-68.783 57.828-74.17 122.52-74.17c64.689 0 114.82 21.56 113.28 71.861z" fill-rule="evenodd" transform="matrix(1.0449 0 0 .91268 -740.97 541.16)" filter="url(#filter4756)"/>
   <path id="path3814" d="m393.94 640.45c-1.2004 39.663-55.772 74.261-122.61 74.261-66.836 0-121.02-32.168-121.02-71.849s59.747-77.476 126.58-77.476c66.836 0 118.63 22.522 117.04 75.065z" fill-rule="evenodd" stroke="#000" stroke-width=".71139" fill="url(#linearGradient7316)"/>
   <path id="path13084" opacity=".34956" d="m965 415.69c-68.483 0-124 8.5066-124 19s55.517 19 124 19 124-8.5066 124-19-55.517-19-124-19zm101.19 16c4.1187-0.0776 7.2694 0.78393 7.375 2.0938 0.1207 1.4969-3.7829 3.0371-8.75 3.4375-4.9671 0.40038-9.0981-0.50307-9.2187-2-0.1207-1.4969 3.8141-3.0371 8.7812-3.4375 0.6209-0.05 1.2241-0.0827 1.8125-0.0937z" fill-rule="evenodd" transform="matrix(1.1296 0 0 1.1421 -822.14 213.78)" filter="url(#filter13086)"/>
   <path id="path3819" d="m387.2 636.1c-15.029 69.035-192.22 99.724-230.19 3.6445l-14.93-234.81c56.99-79.061 245.81-53.44 265.21 0.52065z" stroke="#000" stroke-width="1.1857px" fill="url(#linearGradient7312)"/>
   <path id="path3834" d="m1053.8 258.7a12.665 17.469 0 1 1 -25.33 0 12.665 17.469 0 1 1 25.33 0z" transform="matrix(1.1986 0 0 1.2213 -894.91 196.76)" stroke="#000" stroke-width="1px" fill="url(#radialGradient4715)"/>
   <path id="path4849" fill="#f95" d="m101.26 643c-0.115 0.75309-0.1039 1.3137-0.2074 2.0893-0.1035 0.77559-4.3204-0.29331-4.4257 0.52615-0.1055 0.81946 0.01 3.6983-0.1128 4.583-0.1202 0.8847 1.8356 2.8428 1.6873 3.8142-0.1248 0.81645-1.6928 1.1043-1.4527 1.9822s2.4587 2.3247 2.8179 3.2393c0.3591 0.9146-0.9155-2.3016-0.6829-1.375 0.2327 0.92658 3.8378 4.1338 3.6982 5.0477-0.1291 0.84576-4.8886 1.9994-5.3229 3.1297s-1.0225 1.6826-1.5596 2.9145c-0.537 1.2319-0.3357 0.93564-0.7731 2.0862-0.4373 1.1506 2.5967 5.2114 2.4614 6.0978-0.1324 0.86614-4.3662 0.81154-4.581 1.4067-0.2149 0.5952 3.146 2.3204 2.9036 2.8253-0.2425 0.5049-2.0155 1.509-2.2304 2.1042-0.2148 0.5952 0.4681 1.1531 0.3358 2.0192-0.1353 0.88631-2.7015 1.2693-2.8336 2.3366-0.1321 1.0672 2.5915-1.2857 2.4615-0.165-0.13 1.1208-2.0958 6.3715-2.2249 7.4184-0.1289 1.0469-1.6031 0.89019-1.7322 1.7359-0.1395 0.91384 3.0654-1.3743 3.1397-0.78899 0.074 0.58535-2.0111 0.9649-1.8632 1.4245 0.1478 0.4596 1.8189 5.168 1.9005 5.7046 0.082 0.53664 0.9264-2.924 0.8017-2.1076-0.1483 0.97131-3.4383 5.2171-3.4417 6.4962 0 1.2792 0.3478 3.0451 0.3983 4.3905 0.05 1.3454 3.2227 2.7714 3.2359 3.9414 0.012 1.17-3.5831 1.4125-3.6981 2.1656-0.2442 1.5994 0.3543 4.0933-0.2111 5.2498s0.7757 2.0955 0.1441 2.8379c-0.6317 0.74236-3.7077 0.97364-4.1509 1.3305-0.4432 0.35687 0.9951 1.0633 0.9951 1.0633s-1.646-3.2888-0.7509-3.0051c0.895 0.28362 1.827 1.6685 3.2688 2.1094 1.4417 0.4409 3.9946 2.9801 5.6346 3.452 1.6399 0.47189 2.3804-0.602 3.8702-0.22536 3.4814 0.87992 8.8629 4.1408 12.344 5.0207 5.9592 1.5062 10.213 2.8458 10.213 2.8458s5.1957-3.854 11.753-4.1053c3.0874-0.11825 4.6008 3.0145 8.5828 2.8619 3.3471-0.12839 8.2128-2.2636 11.959-2.4072 3.4673-0.13285 6.0663-2.8972 9.7002-3.0365 3.5509-0.13606 3.7395-1.632 7.2904-1.7681 14.228 1.4622 34.633-9.8141 45.454-5.7607 13.075 0.19914-1.2098-21.005 0.7352-31.897 0.4948-3.1781 3.0167-0.67203 3.5535-4.1195 0.5162-3.3158-1.6579-8.3024-1.1417-11.618 0.5368-3.4478-1.3849-8.1194-0.89-11.298 0.5728-3.6793 6.6101-6.8248 7.0648-9.7459 0.9408-6.043 2.7275-5.6257 2.7275-5.6257l-1.3685-3.5699c0.1426-3.7849-4.5904 0.12166-6.2487-1.0389-2.2264-1.5581 1.6019-13.408 0.052-15.084 0 0-0.2317 2.7316-6.7014 0.58504-2.9691-0.9851-8.6757 0.1564-12.759 0.35829-3.3795 0.16711-8.0746 0.41876-11.922 0.60897-3.4926 0.1727-6.8941-2.5076-10.636-2.3226-3.5628 0.17616-3.3156 1.9335-6.9895 2.1152-3.6188 0.17896-9.2833-1.4868-12.902-1.3079-3.6741 0.18165-8.1065-5.1315-11.67-4.9554-3.7417 0.18502-7.6967 4.8133-11.189 4.986-3.8475 0.19023-6.8707 2.2538-10.25 2.4209-4.0839 0.20194-6.8382-4.2298-9.9599-4.0754-6.7425 0.3334-14.366 4.5093-14.366 4.5093s3.9461-1.2402 3.678-0.84018c-0.2682 0.40002-4.1363-0.76216-4.5345 0.0378-0.3982 0.79993-0.3631 1.5624-0.7533 2.7621-0.3903 1.1997 1.7894 6.1875 1.5451 7.787l0.07-0.0913"/>
   <path id="path9413" d="m161.74 727.96c-9.037 0.0554-18.06 0.11203-27.069 0.17001-11.01-2.4537-21.999-4.905-32.967-7.3539l-17.114-4.6477c5.7437 1.3903 11.486 2.7802 17.226 4.1697h0.00001c11.017 2.1435 22.012 4.2846 32.987 6.4232 8.9786-0.30941 17.943-0.62013 26.894-0.93215z" fill-rule="evenodd" fill="#b76b37"/>
   <path id="path9423" d="m161.51 723.55c-9.0459 0.3337-18.076 0.66857-27.091 1.0046-8.4667-1.8625-16.92-3.7242-25.361-5.5852l-26.64-5.0456 26.778 4.3228h0.00001c8.4569 1.6293 16.901 3.2578 25.331 4.8855h0.00001c8.9727-0.5824 17.93-1.166 26.872-1.7508z" fill-rule="evenodd" fill="#b76b37"/>
   <path id="path9433" d="m161.74 727.96c-9.037 0.0554-18.06 0.11203-27.069 0.17001-11.01-2.4537-21.999-4.905-32.967-7.3539l-17.114-4.6477c5.7437 1.3903 11.486 2.7802 17.226 4.1697h0.00001c11.017 2.1435 22.012 4.2846 32.987 6.4232 8.9786-0.30941 17.943-0.62013 26.894-0.93215z" fill-rule="evenodd" fill="#b76b37"/>
   <path id="path9435" d="m161.51 723.55c-9.0459 0.3337-18.076 0.66857-27.091 1.0046-8.4667-1.8625-16.92-3.7242-25.361-5.5852l-26.64-5.0456 26.778 4.3228h0.00001c8.4569 1.6293 16.901 3.2578 25.331 4.8855h0.00001c8.9727-0.5824 17.93-1.166 26.872-1.7508z" fill-rule="evenodd" fill="#b76b37"/>
   <path id="path9441" d="m161.2 720.25c-9.037 0.0554-18.06 0.11205-27.069 0.17004v-0.00001c-11.01-2.4537-21.999-4.905-32.967-7.3539-5.7066-1.5496-11.411-3.0989-17.114-4.6477 5.7436 1.3903 11.485 2.7802 17.226 4.1696 11.017 2.1435 22.012 4.2846 32.987 6.4232 8.9785-0.30942 17.943-0.62015 26.894-0.93218z" fill-rule="evenodd" fill="#b76b37"/>
   <path id="path9443" d="m160.96 715.84c-9.0458 0.3337-18.076 0.66857-27.091 1.0046v-0.00001c-8.4667-1.8625-16.92-3.7242-25.361-5.5851l-26.64-5.0456c8.9242 1.4406 17.85 2.8816 26.778 4.3229 8.4569 1.6293 16.901 3.2578 25.332 4.8854h0.00001c8.9726-0.5824 17.93-1.166 26.872-1.7508z" fill-rule="evenodd" fill="#b76b37"/>
   <path id="path9445" d="m161.2 720.25c-9.0238 0.0584-18.038 0.11741-27.043 0.17691-11.091-1.6235-22.172-3.2465-33.242-4.869-6.0756-0.81839-12.152-1.6368-18.228-2.4554 6.0968 0.65104 12.194 1.3022 18.292 1.9533h0.00001c11.097 1.3167 22.182 2.6328 33.258 3.9485 8.9826-0.30791 17.956-0.61635 26.919-0.92531z" fill-rule="evenodd" fill="#b76b37"/>
   <path id="path9447" d="m160.96 715.84c-9.0458 0.3337-18.076 0.66857-27.091 1.0046v-0.00001c-8.4667-1.8625-16.92-3.7242-25.361-5.5851l-26.64-5.0456c8.9242 1.4406 17.85 2.8816 26.778 4.3229 8.4569 1.6293 16.901 3.2578 25.332 4.8854h0.00001c8.9726-0.5824 17.93-1.166 26.872-1.7508z" fill-rule="evenodd" fill="#b76b37"/>
   <path id="path9457" d="m162.56 715.56c-9.037 0.0554-18.06 0.11203-27.069 0.17001 0-0.00001 0-0.00001-0.00001-0.00001-11.01-2.4537-21.999-4.905-32.967-7.3539-5.7066-1.5496-11.411-3.0989-17.114-4.6477 5.7436 1.3903 11.485 2.7802 17.226 4.1696 11.017 2.1435 22.012 4.2846 32.987 6.4232 8.9786-0.30941 17.943-0.62013 26.894-0.93215z" fill-rule="evenodd" fill="#b76b37"/>
   <path id="path9459" d="m162.25 711.16c-8.9199-0.30647-17.833-0.61247-26.74-0.91797-8.5491-1.2208-17.089-2.4407-25.621-3.6598-8.8871-1.6836-17.772-3.3667-26.653-5.0495 8.9242 1.4401 17.846 2.8797 26.764 4.319 8.5478 0.98527 17.087 1.9697 25.617 2.9532 8.899 0.0619 17.792 0.12328 26.678 0.18419z" fill-rule="evenodd" fill="#b76b37"/>
   <path id="path9461" d="m162.41 715.56c-8.7712-1.2231-17.551-2.4467-26.34-3.6707-10.596 0.0372-21.208 0.0742-31.835 0.11078-6.5425 0.46-13.088 0.92015-19.637 1.3805 6.5333-0.64187 13.07-1.2839 19.609-1.9261 10.631-0.33077 21.277-0.66123 31.939-0.99138 8.8355 0.98032 17.68 1.9611 26.533 2.9423z" fill-rule="evenodd" fill="#b76b37"/>
   <path id="path9463" d="m162.19 711.15c-8.6214-0.76064-17.243-1.5213-25.864-2.282-8.8152-0.76463-17.625-1.5285-26.428-2.2917h-0.00001c-8.8939-1.6844-17.782-3.368-26.663-5.0509 8.9242 1.44 17.842 2.8792 26.754 4.3176v0.00001c8.8208 0.5227 17.636 1.0447 26.445 1.5659h0.00001c8.6393 0.52521 17.279 1.0504 25.918 1.5756z" fill-rule="evenodd" fill="#b76b37"/>
   <path id="path9473" d="m162.79 702.59c-8.9506-0.31203-17.915-0.62275-26.894-0.93217-10.975 2.1386-21.97 4.2797-32.987 6.4232-5.74 1.3895-11.482 2.7793-17.226 4.1696 5.703-1.5488 11.408-3.098 17.114-4.6477 10.968-2.4489 21.957-4.9002 32.967-7.3539 9.009 0.058 18.032 0.11465 27.069 0.17002z" fill-rule="evenodd" fill="#b76b37"/>
   <path id="path9475" d="m162.49 707c-8.9416-0.58635-17.899-1.1715-26.872-1.7554-8.4667 1.627-16.929 3.2545-25.387 4.8823-8.6546-1.2193-17.29-2.4393-25.905-3.6601 8.6455 0.98356 17.271 1.9679 25.878 2.953 8.4397-1.8624 16.875-3.7251 25.306-5.5883 9.0146 0.33453 18.045 0.66787 27.091 1z" fill-rule="evenodd" fill="#b76b37"/>
   <path id="path9477" d="m162.79 702.59c-8.9506-0.31203-17.915-0.62275-26.894-0.93217-10.975 2.1386-21.97 4.2797-32.987 6.4232-5.74 1.3895-11.482 2.7793-17.226 4.1696 5.703-1.5488 11.408-3.098 17.114-4.6477 10.968-2.4489 21.957-4.9002 32.967-7.3539 9.009 0.058 18.032 0.11465 27.069 0.17002z" fill-rule="evenodd" fill="#b76b37"/>
   <path id="path9479" d="m162.49 707c-8.97-0.58349-17.946-1.167-26.928-1.7505-8.0766 0.2558-16.157 0.51154-24.242 0.76722-9.0903 0.0582-18.179 0.11642-27.266 0.17456 9.0821-0.30924 18.163-0.61843 27.241-0.92757 8.0861-0.47911 16.176-0.95817 24.27-1.4372h0.00001c9.0056 0.33496 18.017 0.66994 27.035 1.0049z" fill-rule="evenodd" fill="#b76b37"/>
   <path id="path9489" d="m163.43 695.98c-12.527 0.65006-25.064 1.3014-37.611 1.9541-6.7261 1.1701-13.551 1.2424-20.333 1.1067h-0.00001c-6.7367-0.13287-13.508 0.32874-20.073 1.9177 6.5184-1.7704 13.306-2.4266 20.077-2.4796 6.7829-0.0555 13.584-0.31715 20.188-1.66 12.526-1.0006 25.063-2.0024 37.61-3.0056z" fill-rule="evenodd" fill="#b76b37"/>
   <path id="path9491" d="m163.03 700.39c-8.9417-0.58478-17.899-1.1684-26.872-1.7508l-0.00001 0.00001c-8.4307 1.6277-16.875 3.2562-25.332 4.8855-8.9277 1.4413-17.854 2.8822-26.778 4.3229l26.64-5.0456c8.4405-1.8609 16.894-3.7226 25.361-5.5852 9.0149 0.33607 18.045 0.67096 27.091 1.0047z" fill-rule="evenodd" fill="#b76b37"/>
   <path id="path9493" d="m163.34 695.98c-8.954-0.3143-17.921-0.6275-26.901-0.93962h-0.00001c-8.2126 1.4271-16.547 1.2606-24.814 1.1751-8.2446-0.0803-16.553 0.047-24.573 1.9856 7.9619-2.1651 16.315-2.5383 24.571-2.6874 8.2947-0.1546 16.639-0.22615 24.701-1.8672 9.0074 0.0553 18.028 0.10946 27.061 0.16256z" fill-rule="evenodd" fill="#b76b37"/>
   <path id="path9495" d="m163.03 700.39c-8.9631-0.58509-17.935-1.17-26.915-1.7549-8.8027 0.61175-17.611 1.2235-26.426 1.8352-8.0947 0.25488-16.187 0.50961-24.278 0.76422 8.0802-0.48019 16.158-0.96024 24.234-1.4402 8.8096-0.85784 17.625-1.7157 26.447-2.5735 9.0076 0.33365 18.024 0.66717 27.048 1.0006z" fill-rule="evenodd" fill="#b76b37"/>
   <path id="path9505" d="m171.56 664.59c-9.037 0.0554-18.06 0.11204-27.069 0.17002-11.01-2.4537-21.999-4.905-32.967-7.3539l-17.114-4.6477 17.226 4.1696c11.017 2.1435 22.012 4.2846 32.987 6.4232 8.9786-0.30942 17.943-0.62014 26.894-0.93216z" fill-rule="evenodd" fill="#b76b37"/>
   <path id="path9507" d="m171.32 660.18c-9.0458 0.3337-18.076 0.66858-27.091 1.0046-8.4667-1.8625-16.92-3.7242-25.361-5.5851l-26.64-5.0456c8.9241 1.4406 17.85 2.8816 26.778 4.3228h0.00001c8.4569 1.6293 16.901 3.2578 25.331 4.8855h0.00001c8.9726-0.58241 17.93-1.166 26.872-1.7508z" fill-rule="evenodd" fill="#b76b37"/>
   <path id="path9509" d="m171.56 664.59c-9.037 0.0554-18.06 0.11204-27.069 0.17002-11.01-2.4537-21.999-4.905-32.967-7.3539l-17.114-4.6477 17.226 4.1696c11.017 2.1435 22.012 4.2846 32.987 6.4232 8.9786-0.30942 17.943-0.62014 26.894-0.93216z" fill-rule="evenodd" fill="#b76b37"/>
   <path id="path9511" d="m171.32 660.18c-9.0458 0.3337-18.076 0.66858-27.091 1.0046-8.4667-1.8625-16.92-3.7242-25.361-5.5851l-26.64-5.0456c8.9241 1.4406 17.85 2.8816 26.778 4.3228h0.00001c8.4569 1.6293 16.901 3.2578 25.331 4.8855h0.00001c8.9726-0.58241 17.93-1.166 26.872-1.7508z" fill-rule="evenodd" fill="#b76b37"/>
   <path id="path9513" d="m171.01 656.87c-9.037 0.0554-18.06 0.11204-27.069 0.17002-11.01-2.4537-21.999-4.905-32.967-7.3539l-17.114-4.6477c5.7436 1.3903 11.485 2.7802 17.226 4.1696 11.017 2.1435 22.012 4.2846 32.987 6.4232 8.9786-0.30942 17.943-0.62014 26.894-0.93216z" fill-rule="evenodd" fill="#b76b37"/>
   <path id="path9515" d="m170.77 652.46c-9.0459 0.3337-18.076 0.66859-27.091 1.0046-8.4667-1.8625-16.92-3.7242-25.361-5.5852l-26.64-5.0456c8.9241 1.4406 17.85 2.8816 26.778 4.3228h0.00001c8.4569 1.6293 16.901 3.2578 25.331 4.8855h0.00001c8.9727-0.58241 17.93-1.166 26.872-1.7508z" fill-rule="evenodd" fill="#b76b37"/>
   <path id="path9517" d="m171.01 656.87c-9.0238 0.0584-18.038 0.1174-27.043 0.17689-11.091-1.6235-22.172-3.2465-33.242-4.8689-6.0756-0.81839-12.152-1.6368-18.228-2.4554 6.0968 0.65104 12.194 1.3022 18.292 1.9533 11.097 1.3167 22.182 2.6328 33.258 3.9484 8.9826-0.30791 17.956-0.61634 26.919-0.92529z" fill-rule="evenodd" fill="#b76b37"/>
   <path id="path9519" d="m170.77 652.46c-9.0459 0.3337-18.076 0.66859-27.091 1.0046-8.4667-1.8625-16.92-3.7242-25.361-5.5852l-26.64-5.0456c8.9241 1.4406 17.85 2.8816 26.778 4.3228h0.00001c8.4569 1.6293 16.901 3.2578 25.331 4.8855h0.00001c8.9727-0.58241 17.93-1.166 26.872-1.7508z" fill-rule="evenodd" fill="#b76b37"/>
   <path id="path9521" d="m172.37 652.19c-9.037 0.0554-18.06 0.11203-27.069 0.17001l-0.00001-0.00001c-11.01-2.4537-21.999-4.905-32.967-7.3539l-17.114-4.6477 17.226 4.1696c11.017 2.1435 22.012 4.2846 32.987 6.4232 8.9786-0.30941 17.943-0.62013 26.894-0.93215z" fill-rule="evenodd" fill="#b76b37"/>
   <path id="path9523" d="m172.06 647.78c-8.9199-0.30647-17.833-0.61247-26.74-0.91797-8.5491-1.2208-17.089-2.4407-25.621-3.6598-8.8872-1.6836-17.772-3.3667-26.653-5.0495 8.9242 1.4401 17.846 2.8797 26.764 4.319v0.00001c8.5478 0.98527 17.087 1.9697 25.617 2.9532h0.00001c8.899 0.0619 17.792 0.12328 26.678 0.18419z" fill-rule="evenodd" fill="#b76b37"/>
   <path id="path9526" d="m172.22 652.18c-8.7712-1.2231-17.551-2.4467-26.34-3.6707-10.596 0.0372-21.208 0.0742-31.835 0.11079h-0.00001c-6.5425 0.45999-13.088 0.92014-19.637 1.3804 6.5333-0.64186 13.07-1.2839 19.609-1.926 10.631-0.33077 21.277-0.66123 31.939-0.99138 8.8356 0.9803 17.68 1.9611 26.533 2.9423z" fill-rule="evenodd" fill="#b76b37"/>
   <path id="path9528" d="m172 647.78l-25.864-2.2819c-8.8152-0.76464-17.625-1.5285-26.428-2.2917h-0.00001c-8.894-1.6844-17.782-3.368-26.663-5.0509 8.9242 1.44 17.842 2.8791 26.754 4.3176 8.8208 0.52272 17.636 1.0447 26.445 1.5659 8.6393 0.52521 17.279 1.0504 25.918 1.5756z" fill-rule="evenodd" fill="#b76b37"/>
   <path id="path9530" d="m172.6 639.22c-8.9505-0.31203-17.915-0.62275-26.894-0.93216-10.975 2.1386-21.97 4.2797-32.987 6.4232-5.74 1.3895-11.482 2.7794-17.226 4.1697 5.703-1.5488 11.408-3.098 17.114-4.6477 10.968-2.4489 21.957-4.9002 32.967-7.3539h0.00001c9.009 0.058 18.032 0.11465 27.069 0.17002z" fill-rule="evenodd" fill="#b76b37"/>
   <path id="path9532" d="m172.3 643.62c-8.9416-0.58634-17.899-1.1715-26.872-1.7554-8.4667 1.627-16.929 3.2545-25.387 4.8823-8.6546-1.2193-17.29-2.4393-25.905-3.6601 8.6455 0.98356 17.271 1.9679 25.878 2.953 8.4397-1.8624 16.875-3.7251 25.306-5.5883 9.0146 0.33453 18.045 0.66786 27.091 0.99999z" fill-rule="evenodd" fill="#b76b37"/>
   <path id="path9534" d="m172.6 639.22c-8.9505-0.31203-17.915-0.62275-26.894-0.93216-10.975 2.1386-21.97 4.2797-32.987 6.4232-5.74 1.3895-11.482 2.7794-17.226 4.1697 5.703-1.5488 11.408-3.098 17.114-4.6477 10.968-2.4489 21.957-4.9002 32.967-7.3539h0.00001c9.009 0.058 18.032 0.11465 27.069 0.17002z" fill-rule="evenodd" fill="#b76b37"/>
   <path id="path9536" d="m172.3 643.62c-8.97-0.58348-17.946-1.167-26.928-1.7505-8.0766 0.25579-16.157 0.51152-24.242 0.76719-9.0903 0.0582-18.179 0.11643-27.266 0.17458 9.0821-0.30925 18.163-0.61844 27.241-0.92759 8.0861-0.4791 16.176-0.95815 24.27-1.4371h0.00001c9.0056 0.33496 18.017 0.66993 27.035 1.0049z" fill-rule="evenodd" fill="#b76b37"/>
   <path id="path9538" d="m173.24 632.6c-12.527 0.65006-25.064 1.3014-37.611 1.9541v0.00001c-6.7261 1.1701-13.551 1.2424-20.333 1.1067h-0.00001c-6.7367-0.13287-13.508 0.32875-20.074 1.9178 6.5185-1.7704 13.306-2.4266 20.077-2.4796h0.00001c6.7829-0.0555 13.584-0.31715 20.188-1.66 12.526-1.0006 25.063-2.0024 37.61-3.0056z" fill-rule="evenodd" fill="#b76b37"/>
   <path id="path9540" d="m172.84 637.01c-8.9417-0.58477-17.899-1.1684-26.872-1.7508h-0.00001c-8.4307 1.6277-16.875 3.2562-25.331 4.8855h-0.00001c-8.9277 1.4413-17.854 2.8822-26.778 4.3229l26.64-5.0456c8.4405-1.8609 16.894-3.7226 25.361-5.5851 9.0149 0.33607 18.045 0.67095 27.091 1.0046z" fill-rule="evenodd" fill="#b76b37"/>
   <path id="path9542" d="m173.15 632.6c-8.954-0.3143-17.921-0.6275-26.901-0.93962h-0.00001c-8.2127 1.4271-16.547 1.2606-24.814 1.1751-8.2445-0.0803-16.553 0.047-24.573 1.9856 7.9619-2.1651 16.315-2.5382 24.571-2.6873h0.00001c8.2947-0.15459 16.639-0.22615 24.701-1.8672 9.0074 0.0553 18.028 0.10946 27.061 0.16256z" fill-rule="evenodd" fill="#b76b37"/>
   <path id="path9544" d="m172.84 637.01c-8.9631-0.58509-17.935-1.17-26.915-1.7549h-0.00001c-8.8027 0.61175-17.611 1.2235-26.426 1.8352-8.0947 0.25487-16.187 0.5096-24.278 0.7642 8.0802-0.48018 16.158-0.96022 24.234-1.4401 8.8096-0.85784 17.625-1.7157 26.447-2.5735 9.0076 0.33365 18.024 0.66717 27.048 1.0006z" fill-rule="evenodd" fill="#b76b37"/>
   <g id="g9666" fill-rule="evenodd" fill="#b76b37" transform="matrix(1.1296 0 0 1.1421 -820.34 493.06)">
    <path id="path9586" d="m875.38 146.22c-7.9189-0.28913-15.852-0.57699-23.798-0.86357-9.7135 1.853-19.448 3.7084-29.203 5.5662-5.0831 1.2066-10.168 2.4137-15.255 3.6211 5.0464-1.366 10.095-2.7325 15.145-4.0993 9.707-2.1633 19.435-4.3289 29.183-6.4969 7.9768 0.0351 15.967 0.0689 23.972 0.10149-0.0146 0.72364-0.0292 1.4473-0.0439 2.1709z"/>
    <path id="path9588" d="m875.1 150.07c-7.9102-0.5276-15.836-1.054-23.777-1.5793h-0.00001c-7.4614 1.4106-14.936 2.822-22.423 4.2342h-0.00001l-23.712 3.74 23.576-4.463c7.471-1.6438 14.955-3.2884 22.452-4.9338 7.9826 0.27893 15.98 0.5567 23.994 0.83331-0.0365 0.72287-0.073 1.4457-0.10952 2.1686z"/>
    <path id="path9590" d="m875.38 146.22c-7.9189-0.28913-15.852-0.57699-23.798-0.86357-9.7135 1.853-19.448 3.7084-29.203 5.5662-5.0831 1.2066-10.168 2.4137-15.255 3.6211 5.0464-1.366 10.095-2.7325 15.145-4.0993 9.707-2.1633 19.435-4.3289 29.183-6.4969 7.9768 0.0351 15.967 0.0689 23.972 0.10149-0.0146 0.72364-0.0292 1.4473-0.0439 2.1709z"/>
    <path id="path9592" d="m875.1 150.07c-7.9102-0.5276-15.836-1.054-23.777-1.5793h-0.00001c-7.4614 1.4106-14.936 2.822-22.423 4.2342h-0.00001l-23.712 3.74 23.576-4.463c7.471-1.6438 14.955-3.2884 22.452-4.9338 7.9826 0.27893 15.98 0.5567 23.994 0.83331-0.0365 0.72287-0.073 1.4457-0.10952 2.1686z"/>
    <path id="path9594" d="m874.9 152.97c-7.9189-0.28913-15.852-0.57699-23.798-0.86357-9.7135 1.853-19.448 3.7084-29.203 5.5662-5.0831 1.2066-10.168 2.4137-15.255 3.6211 5.0464-1.366 10.095-2.7325 15.145-4.0993 9.707-2.1633 19.435-4.3289 29.183-6.4969 7.9768 0.0351 15.967 0.0689 23.972 0.10149z"/>
    <path id="path9596" d="m874.62 156.83c-7.9102-0.5276-15.836-1.054-23.777-1.5793h-0.00001c-7.4614 1.4106-14.936 2.822-22.423 4.2342h-0.00001l-23.712 3.74 23.576-4.463c7.471-1.6438 14.955-3.2884 22.452-4.9338 7.9826 0.27893 15.98 0.5567 23.994 0.83331z"/>
    <path id="path9598" d="m874.9 152.97c-7.932-0.28608-15.873-0.57165-23.824-0.85671-9.8033 1.1328-19.617 2.2661-29.442 3.4-5.3992 0.55975-10.798 1.1194-16.196 1.6791 5.3782-0.72712 10.756-1.4542 16.133-2.1812 9.7981-1.4396 19.607-2.8798 29.426-4.3205h0.00001c7.9728 0.0366 15.955 0.0727 23.946 0.10836z"/>
    <path id="path9600" d="m874.62 156.83c-7.9102-0.5276-15.836-1.054-23.777-1.5793h-0.00001c-7.4614 1.4106-14.936 2.822-22.423 4.2342h-0.00001l-23.712 3.74 23.576-4.463c7.471-1.6438 14.955-3.2884 22.452-4.9338 7.9826 0.27893 15.98 0.5567 23.994 0.83331z"/>
    <path id="path9602" d="m876.1 157.07c-7.9189-0.28913-15.852-0.57699-23.798-0.86357h-0.00001c-9.7135 1.853-19.448 3.7084-29.203 5.5662-5.0831 1.2066-10.168 2.4137-15.255 3.6211 5.0464-1.366 10.095-2.7325 15.145-4.0993 9.707-2.1633 19.435-4.3289 29.183-6.4969 7.9768 0.0351 15.967 0.0689 23.972 0.10149-0.0146 0.72364-0.0292 1.4473-0.0439 2.1709z"/>
    <path id="path9604" d="m875.9 160.93c-7.8645 0.0381-15.736 0.0766-23.613 0.11563h-0.00001c-7.5501 0.84645-15.109 1.6938-22.677 2.5419h-0.00001c-7.8969 1.245-15.796 2.4904-23.699 3.7362 7.8602-1.4885 15.723-2.9774 23.589-4.4668 7.5514-1.082 15.112-2.1648 22.681-3.2484v-0.00001c7.8851-0.28266 15.777-0.5658 23.675-0.84942 0.0148 0.72364 0.0295 1.4473 0.0443 2.1709z"/>
    <path id="path9606" d="m876.26 157.06c-7.8413 0.84409-15.674 1.6877-23.498 2.5309-9.4416-0.30733-18.868-0.61497-28.279-0.92291-5.7888-0.57361-11.575-1.1471-17.357-1.7204 5.7979 0.39173 11.593 0.78332 17.385 1.1748 9.4073 0.0138 18.799 0.0278 28.176 0.0422h0.00001c7.7776-1.0869 15.547-2.1734 23.307-3.2594 0.0889 0.71831 0.17773 1.4366 0.2666 2.1549z"/>
    <path id="path9608" d="m875.96 160.93c-7.649 0.44522-15.298 0.89042-22.947 1.3356-7.7977 0.44126-15.601 0.88324-23.411 1.326v0.00001c-7.8902 1.2442-15.786 2.4891-23.689 3.7348 7.8602-1.4886 15.727-2.978 23.599-4.4681 7.7922-0.68319 15.59-1.3671 23.394-2.0517 7.6312-0.68069 15.262-1.3614 22.893-2.042z"/>
    <path id="path9610" d="m876.39 168.43c-8.0045 0.0326-15.995 0.0664-23.972 0.10149-9.7484-2.168-19.476-4.3337-29.183-6.4969h-0.00001c-5.05-1.3668-10.098-2.7333-15.145-4.0993l15.255 3.6211v0.00001c9.7549 1.8578 19.489 3.7132 29.203 5.5662 7.9466-0.28658 15.879-0.57444 23.798-0.86357z"/>
    <path id="path9612" d="m876.18 164.57c-8.0133 0.27505-16.011 0.55127-23.993 0.82866-7.4614-1.646-14.927-3.2917-22.397-4.937-7.6161 0.8479-15.252 1.6951-22.907 2.5415 7.625-1.0837 15.27-2.1666 22.933-3.2489h0.00001c7.4881 1.4108 14.981 2.8211 22.478 4.231h0.00001c7.9411-0.52682 15.867-1.0548 23.777-1.584z"/>
    <path id="path9614" d="m876.39 168.43c-8.0045 0.0326-15.995 0.0664-23.972 0.10149-9.7484-2.168-19.476-4.3337-29.183-6.4969h-0.00001c-5.05-1.3668-10.098-2.7333-15.145-4.0993l15.255 3.6211v0.00001c9.7549 1.8578 19.489 3.7132 29.203 5.5662 7.9466-0.28658 15.879-0.57444 23.798-0.86357z"/>
    <path id="path9616" d="m876.18 164.57c-7.9852 0.27786-15.965 0.5557-23.938 0.83352-7.1662-0.43329-14.328-0.86664-21.487-1.3-8.0365-0.28629-16.075-0.57264-24.114-0.85903 8.0446 0.0353 16.091 0.0706 24.139 0.106h0.00001c7.1567 0.20997 14.309 0.41999 21.458 0.63008h0.00001c7.95-0.52639 15.894-1.0528 23.832-1.5791z"/>
    <path id="path9618" d="m876.78 174.22c-11.108-0.90031-22.206-1.7993-33.294-2.6971h-0.00001c-5.8417-1.187-11.86-1.4276-17.864-1.488-5.9946-0.058-12.002-0.64387-17.773-2.2061 5.8168 1.3807 11.809 1.7721 17.77 1.6442 6.0032-0.13068 12.045-0.0795 18.007 0.9345h0.00001c11.109 0.54985 22.207 1.0984 33.295 1.6457z"/>
    <path id="path9620" d="m876.66 170.36c-8.0132 0.27661-16.011 0.55438-23.994 0.83331-7.4969-1.6454-14.981-3.29-22.452-4.9338-7.8567-1.4873-15.715-2.975-23.576-4.463 7.9022 1.2463 15.806 2.493 23.712 3.74h0.00001c7.4873 1.4122 14.962 2.8236 22.423 4.2342h0.00001c7.9408-0.52528 15.866-1.0517 23.777-1.5793z"/>
    <path id="path9622" d="m876.87 174.22c-8.0011 0.0303-15.989 0.0617-23.964 0.0941-7.1316-1.4508-14.517-1.5278-21.861-1.6781-7.3078-0.14484-14.702-0.48578-21.751-2.3966 7.1065 1.6842 14.457 1.7795 21.754 1.6949 7.3163-0.0897 14.692-0.25071 21.972 0.98573h0.00001c7.9482-0.28925 15.884-0.57957 23.806-0.87095z"/>
    <path id="path9624" d="m876.66 170.36c-7.992 0.27626-15.976 0.55264-23.951 0.82916h-0.00001c-7.8102-0.7664-15.614-1.5328-23.413-2.2993h-0.00001c-7.1482-0.43422-14.299-0.86856-21.451-1.303 7.1626 0.20888 14.327 0.4179 21.494 0.62706 7.8033 0.5203 15.601 1.0406 23.392 1.561 7.948-0.5277 15.888-1.0555 23.819-1.5835z"/>
   </g>
   <g id="g9814" fill-rule="evenodd" transform="matrix(1.2278 0 0 -1.1421 -909.67 874.77)" fill="#ffd08d">
    <path id="path9816" d="m875.38 146.22c-7.9189-0.28913-15.852-0.57699-23.798-0.86357-9.7135 1.853-19.448 3.7084-29.203 5.5662-5.0831 1.2066-10.168 2.4137-15.255 3.6211 5.0464-1.366 10.095-2.7325 15.145-4.0993 9.707-2.1633 19.435-4.3289 29.183-6.4969 7.9768 0.0351 15.967 0.0689 23.972 0.10149-0.0146 0.72364-0.0292 1.4473-0.0439 2.1709z"/>
    <path id="path9818" d="m875.1 150.07c-7.9102-0.5276-15.836-1.054-23.777-1.5793h-0.00001c-7.4614 1.4106-14.936 2.822-22.423 4.2342h-0.00001l-23.712 3.74 23.576-4.463c7.471-1.6438 14.955-3.2884 22.452-4.9338 7.9826 0.27893 15.98 0.5567 23.994 0.83331-0.0365 0.72287-0.073 1.4457-0.10952 2.1686z"/>
    <path id="path9820" d="m875.38 146.22c-7.9189-0.28913-15.852-0.57699-23.798-0.86357-9.7135 1.853-19.448 3.7084-29.203 5.5662-5.0831 1.2066-10.168 2.4137-15.255 3.6211 5.0464-1.366 10.095-2.7325 15.145-4.0993 9.707-2.1633 19.435-4.3289 29.183-6.4969 7.9768 0.0351 15.967 0.0689 23.972 0.10149-0.0146 0.72364-0.0292 1.4473-0.0439 2.1709z"/>
    <path id="path9822" d="m875.1 150.07c-7.9102-0.5276-15.836-1.054-23.777-1.5793h-0.00001c-7.4614 1.4106-14.936 2.822-22.423 4.2342h-0.00001l-23.712 3.74 23.576-4.463c7.471-1.6438 14.955-3.2884 22.452-4.9338 7.9826 0.27893 15.98 0.5567 23.994 0.83331-0.0365 0.72287-0.073 1.4457-0.10952 2.1686z"/>
    <path id="path9824" d="m874.9 152.97c-7.9189-0.28913-15.852-0.57699-23.798-0.86357-9.7135 1.853-19.448 3.7084-29.203 5.5662-5.0831 1.2066-10.168 2.4137-15.255 3.6211 5.0464-1.366 10.095-2.7325 15.145-4.0993 9.707-2.1633 19.435-4.3289 29.183-6.4969 7.9768 0.0351 15.967 0.0689 23.972 0.10149z"/>
    <path id="path9826" d="m874.62 156.83c-7.9102-0.5276-15.836-1.054-23.777-1.5793h-0.00001c-7.4614 1.4106-14.936 2.822-22.423 4.2342h-0.00001l-23.712 3.74 23.576-4.463c7.471-1.6438 14.955-3.2884 22.452-4.9338 7.9826 0.27893 15.98 0.5567 23.994 0.83331z"/>
    <path id="path9828" d="m874.9 152.97c-7.932-0.28608-15.873-0.57165-23.824-0.85671-9.8033 1.1328-19.617 2.2661-29.442 3.4-5.3992 0.55975-10.798 1.1194-16.196 1.6791 5.3782-0.72712 10.756-1.4542 16.133-2.1812 9.7981-1.4396 19.607-2.8798 29.426-4.3205h0.00001c7.9728 0.0366 15.955 0.0727 23.946 0.10836z"/>
    <path id="path9830" d="m874.62 156.83c-7.9102-0.5276-15.836-1.054-23.777-1.5793h-0.00001c-7.4614 1.4106-14.936 2.822-22.423 4.2342h-0.00001l-23.712 3.74 23.576-4.463c7.471-1.6438 14.955-3.2884 22.452-4.9338 7.9826 0.27893 15.98 0.5567 23.994 0.83331z"/>
    <path id="path9832" d="m876.1 157.07c-7.9189-0.28913-15.852-0.57699-23.798-0.86357h-0.00001c-9.7135 1.853-19.448 3.7084-29.203 5.5662-5.0831 1.2066-10.168 2.4137-15.255 3.6211 5.0464-1.366 10.095-2.7325 15.145-4.0993 9.707-2.1633 19.435-4.3289 29.183-6.4969 7.9768 0.0351 15.967 0.0689 23.972 0.10149-0.0146 0.72364-0.0292 1.4473-0.0439 2.1709z"/>
    <path id="path9834" d="m875.9 160.93c-7.8645 0.0381-15.736 0.0766-23.613 0.11563h-0.00001c-7.5501 0.84645-15.109 1.6938-22.677 2.5419h-0.00001c-7.8969 1.245-15.796 2.4904-23.699 3.7362 7.8602-1.4885 15.723-2.9774 23.589-4.4668 7.5514-1.082 15.112-2.1648 22.681-3.2484v-0.00001c7.8851-0.28266 15.777-0.5658 23.675-0.84942 0.0148 0.72364 0.0295 1.4473 0.0443 2.1709z"/>
    <path id="path9836" d="m876.26 157.06c-7.8413 0.84409-15.674 1.6877-23.498 2.5309-9.4416-0.30733-18.868-0.61497-28.279-0.92291-5.7888-0.57361-11.575-1.1471-17.357-1.7204 5.7979 0.39173 11.593 0.78332 17.385 1.1748 9.4073 0.0138 18.799 0.0278 28.176 0.0422h0.00001c7.7776-1.0869 15.547-2.1734 23.307-3.2594 0.0889 0.71831 0.17773 1.4366 0.2666 2.1549z"/>
    <path id="path9838" d="m875.96 160.93c-7.649 0.44522-15.298 0.89042-22.947 1.3356-7.7977 0.44126-15.601 0.88324-23.411 1.326v0.00001c-7.8902 1.2442-15.786 2.4891-23.689 3.7348 7.8602-1.4886 15.727-2.978 23.599-4.4681 7.7922-0.68319 15.59-1.3671 23.394-2.0517 7.6312-0.68069 15.262-1.3614 22.893-2.042z"/>
    <path id="path9840" d="m876.39 168.43c-8.0045 0.0326-15.995 0.0664-23.972 0.10149-9.7484-2.168-19.476-4.3337-29.183-6.4969h-0.00001c-5.05-1.3668-10.098-2.7333-15.145-4.0993l15.255 3.6211v0.00001c9.7549 1.8578 19.489 3.7132 29.203 5.5662 7.9466-0.28658 15.879-0.57444 23.798-0.86357z"/>
    <path id="path9842" d="m876.18 164.57c-8.0133 0.27505-16.011 0.55127-23.993 0.82866-7.4614-1.646-14.927-3.2917-22.397-4.937-7.6161 0.8479-15.252 1.6951-22.907 2.5415 7.625-1.0837 15.27-2.1666 22.933-3.2489h0.00001c7.4881 1.4108 14.981 2.8211 22.478 4.231h0.00001c7.9411-0.52682 15.867-1.0548 23.777-1.584z"/>
    <path id="path9844" d="m876.39 168.43c-8.0045 0.0326-15.995 0.0664-23.972 0.10149-9.7484-2.168-19.476-4.3337-29.183-6.4969h-0.00001c-5.05-1.3668-10.098-2.7333-15.145-4.0993l15.255 3.6211v0.00001c9.7549 1.8578 19.489 3.7132 29.203 5.5662 7.9466-0.28658 15.879-0.57444 23.798-0.86357z"/>
    <path id="path9846" d="m876.18 164.57c-7.9852 0.27786-15.965 0.5557-23.938 0.83352-7.1662-0.43329-14.328-0.86664-21.487-1.3-8.0365-0.28629-16.075-0.57264-24.114-0.85903 8.0446 0.0353 16.091 0.0706 24.139 0.106h0.00001c7.1567 0.20997 14.309 0.41999 21.458 0.63008h0.00001c7.95-0.52639 15.894-1.0528 23.832-1.5791z"/>
    <path id="path9848" d="m876.78 174.22c-11.108-0.90031-22.206-1.7993-33.294-2.6971h-0.00001c-5.8417-1.187-11.86-1.4276-17.864-1.488-5.9946-0.058-12.002-0.64387-17.773-2.2061 5.8168 1.3807 11.809 1.7721 17.77 1.6442 6.0032-0.13068 12.045-0.0795 18.007 0.9345h0.00001c11.109 0.54985 22.207 1.0984 33.295 1.6457z"/>
    <path id="path9850" d="m876.66 170.36c-8.0132 0.27661-16.011 0.55438-23.994 0.83331-7.4969-1.6454-14.981-3.29-22.452-4.9338-7.8567-1.4873-15.715-2.975-23.576-4.463 7.9022 1.2463 15.806 2.493 23.712 3.74h0.00001c7.4873 1.4122 14.962 2.8236 22.423 4.2342h0.00001c7.9408-0.52528 15.866-1.0517 23.777-1.5793z"/>
    <path id="path9852" d="m876.87 174.22c-8.0011 0.0303-15.989 0.0617-23.964 0.0941-7.1316-1.4508-14.517-1.5278-21.861-1.6781-7.3078-0.14484-14.702-0.48578-21.751-2.3966 7.1065 1.6842 14.457 1.7795 21.754 1.6949 7.3163-0.0897 14.692-0.25071 21.972 0.98573h0.00001c7.9482-0.28925 15.884-0.57957 23.806-0.87095z"/>
    <path id="path9854" d="m876.66 170.36c-7.992 0.27626-15.976 0.55264-23.951 0.82916h-0.00001c-7.8102-0.7664-15.614-1.5328-23.413-2.2993h-0.00001c-7.1482-0.43422-14.299-0.86856-21.451-1.303 7.1626 0.20888 14.327 0.4179 21.494 0.62706 7.8033 0.5203 15.601 1.0406 23.392 1.561 7.948-0.5277 15.888-1.0555 23.819-1.5835z"/>
   </g>
   <g id="g9688" fill-rule="evenodd" fill="#b76b37" transform="matrix(1.2278 0 0 1.1421 -910.48 510.97)">
    <path id="path9690" d="m875.38 146.22c-7.9189-0.28913-15.852-0.57699-23.798-0.86357-9.7135 1.853-19.448 3.7084-29.203 5.5662-5.0831 1.2066-10.168 2.4137-15.255 3.6211 5.0464-1.366 10.095-2.7325 15.145-4.0993 9.707-2.1633 19.435-4.3289 29.183-6.4969 7.9768 0.0351 15.967 0.0689 23.972 0.10149-0.0146 0.72364-0.0292 1.4473-0.0439 2.1709z"/>
    <path id="path9692" d="m875.1 150.07c-7.9102-0.5276-15.836-1.054-23.777-1.5793h-0.00001c-7.4614 1.4106-14.936 2.822-22.423 4.2342h-0.00001l-23.712 3.74 23.576-4.463c7.471-1.6438 14.955-3.2884 22.452-4.9338 7.9826 0.27893 15.98 0.5567 23.994 0.83331-0.0365 0.72287-0.073 1.4457-0.10952 2.1686z"/>
    <path id="path9694" d="m875.38 146.22c-7.9189-0.28913-15.852-0.57699-23.798-0.86357-9.7135 1.853-19.448 3.7084-29.203 5.5662-5.0831 1.2066-10.168 2.4137-15.255 3.6211 5.0464-1.366 10.095-2.7325 15.145-4.0993 9.707-2.1633 19.435-4.3289 29.183-6.4969 7.9768 0.0351 15.967 0.0689 23.972 0.10149-0.0146 0.72364-0.0292 1.4473-0.0439 2.1709z"/>
    <path id="path9696" d="m875.1 150.07c-7.9102-0.5276-15.836-1.054-23.777-1.5793h-0.00001c-7.4614 1.4106-14.936 2.822-22.423 4.2342h-0.00001l-23.712 3.74 23.576-4.463c7.471-1.6438 14.955-3.2884 22.452-4.9338 7.9826 0.27893 15.98 0.5567 23.994 0.83331-0.0365 0.72287-0.073 1.4457-0.10952 2.1686z"/>
    <path id="path9698" d="m874.9 152.97c-7.9189-0.28913-15.852-0.57699-23.798-0.86357-9.7135 1.853-19.448 3.7084-29.203 5.5662-5.0831 1.2066-10.168 2.4137-15.255 3.6211 5.0464-1.366 10.095-2.7325 15.145-4.0993 9.707-2.1633 19.435-4.3289 29.183-6.4969 7.9768 0.0351 15.967 0.0689 23.972 0.10149z"/>
    <path id="path9700" d="m874.62 156.83c-7.9102-0.5276-15.836-1.054-23.777-1.5793h-0.00001c-7.4614 1.4106-14.936 2.822-22.423 4.2342h-0.00001l-23.712 3.74 23.576-4.463c7.471-1.6438 14.955-3.2884 22.452-4.9338 7.9826 0.27893 15.98 0.5567 23.994 0.83331z"/>
    <path id="path9702" d="m874.9 152.97c-7.932-0.28608-15.873-0.57165-23.824-0.85671-9.8033 1.1328-19.617 2.2661-29.442 3.4-5.3992 0.55975-10.798 1.1194-16.196 1.6791 5.3782-0.72712 10.756-1.4542 16.133-2.1812 9.7981-1.4396 19.607-2.8798 29.426-4.3205h0.00001c7.9728 0.0366 15.955 0.0727 23.946 0.10836z"/>
    <path id="path9704" d="m874.62 156.83c-7.9102-0.5276-15.836-1.054-23.777-1.5793h-0.00001c-7.4614 1.4106-14.936 2.822-22.423 4.2342h-0.00001l-23.712 3.74 23.576-4.463c7.471-1.6438 14.955-3.2884 22.452-4.9338 7.9826 0.27893 15.98 0.5567 23.994 0.83331z"/>
    <path id="path9706" d="m876.1 157.07c-7.9189-0.28913-15.852-0.57699-23.798-0.86357h-0.00001c-9.7135 1.853-19.448 3.7084-29.203 5.5662-5.0831 1.2066-10.168 2.4137-15.255 3.6211 5.0464-1.366 10.095-2.7325 15.145-4.0993 9.707-2.1633 19.435-4.3289 29.183-6.4969 7.9768 0.0351 15.967 0.0689 23.972 0.10149-0.0146 0.72364-0.0292 1.4473-0.0439 2.1709z"/>
    <path id="path9708" d="m875.9 160.93c-7.8645 0.0381-15.736 0.0766-23.613 0.11563h-0.00001c-7.5501 0.84645-15.109 1.6938-22.677 2.5419h-0.00001c-7.8969 1.245-15.796 2.4904-23.699 3.7362 7.8602-1.4885 15.723-2.9774 23.589-4.4668 7.5514-1.082 15.112-2.1648 22.681-3.2484v-0.00001c7.8851-0.28266 15.777-0.5658 23.675-0.84942 0.0148 0.72364 0.0295 1.4473 0.0443 2.1709z"/>
    <path id="path9710" d="m876.26 157.06c-7.8413 0.84409-15.674 1.6877-23.498 2.5309-9.4416-0.30733-18.868-0.61497-28.279-0.92291-5.7888-0.57361-11.575-1.1471-17.357-1.7204 5.7979 0.39173 11.593 0.78332 17.385 1.1748 9.4073 0.0138 18.799 0.0278 28.176 0.0422h0.00001c7.7776-1.0869 15.547-2.1734 23.307-3.2594 0.0889 0.71831 0.17773 1.4366 0.2666 2.1549z"/>
    <path id="path9712" d="m875.96 160.93c-7.649 0.44522-15.298 0.89042-22.947 1.3356-7.7977 0.44126-15.601 0.88324-23.411 1.326v0.00001c-7.8902 1.2442-15.786 2.4891-23.689 3.7348 7.8602-1.4886 15.727-2.978 23.599-4.4681 7.7922-0.68319 15.59-1.3671 23.394-2.0517 7.6312-0.68069 15.262-1.3614 22.893-2.042z"/>
    <path id="path9714" d="m876.39 168.43c-8.0045 0.0326-15.995 0.0664-23.972 0.10149-9.7484-2.168-19.476-4.3337-29.183-6.4969h-0.00001c-5.05-1.3668-10.098-2.7333-15.145-4.0993l15.255 3.6211v0.00001c9.7549 1.8578 19.489 3.7132 29.203 5.5662 7.9466-0.28658 15.879-0.57444 23.798-0.86357z"/>
    <path id="path9716" d="m876.18 164.57c-8.0133 0.27505-16.011 0.55127-23.993 0.82866-7.4614-1.646-14.927-3.2917-22.397-4.937-7.6161 0.8479-15.252 1.6951-22.907 2.5415 7.625-1.0837 15.27-2.1666 22.933-3.2489h0.00001c7.4881 1.4108 14.981 2.8211 22.478 4.231h0.00001c7.9411-0.52682 15.867-1.0548 23.777-1.584z"/>
    <path id="path9718" d="m876.39 168.43c-8.0045 0.0326-15.995 0.0664-23.972 0.10149-9.7484-2.168-19.476-4.3337-29.183-6.4969h-0.00001c-5.05-1.3668-10.098-2.7333-15.145-4.0993l15.255 3.6211v0.00001c9.7549 1.8578 19.489 3.7132 29.203 5.5662 7.9466-0.28658 15.879-0.57444 23.798-0.86357z"/>
    <path id="path9720" d="m876.18 164.57c-7.9852 0.27786-15.965 0.5557-23.938 0.83352-7.1662-0.43329-14.328-0.86664-21.487-1.3-8.0365-0.28629-16.075-0.57264-24.114-0.85903 8.0446 0.0353 16.091 0.0706 24.139 0.106h0.00001c7.1567 0.20997 14.309 0.41999 21.458 0.63008h0.00001c7.95-0.52639 15.894-1.0528 23.832-1.5791z"/>
    <path id="path9722" d="m876.78 174.22c-11.108-0.90031-22.206-1.7993-33.294-2.6971h-0.00001c-5.8417-1.187-11.86-1.4276-17.864-1.488-5.9946-0.058-12.002-0.64387-17.773-2.2061 5.8168 1.3807 11.809 1.7721 17.77 1.6442 6.0032-0.13068 12.045-0.0795 18.007 0.9345h0.00001c11.109 0.54985 22.207 1.0984 33.295 1.6457z"/>
    <path id="path9724" d="m876.66 170.36c-8.0132 0.27661-16.011 0.55438-23.994 0.83331-7.4969-1.6454-14.981-3.29-22.452-4.9338-7.8567-1.4873-15.715-2.975-23.576-4.463 7.9022 1.2463 15.806 2.493 23.712 3.74h0.00001c7.4873 1.4122 14.962 2.8236 22.423 4.2342h0.00001c7.9408-0.52528 15.866-1.0517 23.777-1.5793z"/>
    <path id="path9726" d="m876.87 174.22c-8.0011 0.0303-15.989 0.0617-23.964 0.0941-7.1316-1.4508-14.517-1.5278-21.861-1.6781-7.3078-0.14484-14.702-0.48578-21.751-2.3966 7.1065 1.6842 14.457 1.7795 21.754 1.6949 7.3163-0.0897 14.692-0.25071 21.972 0.98573h0.00001c7.9482-0.28925 15.884-0.57957 23.806-0.87095z"/>
    <path id="path9728" d="m876.66 170.36c-7.992 0.27626-15.976 0.55264-23.951 0.82916h-0.00001c-7.8102-0.7664-15.614-1.5328-23.413-2.2993h-0.00001c-7.1482-0.43422-14.299-0.86856-21.451-1.303 7.1626 0.20888 14.327 0.4179 21.494 0.62706 7.8033 0.5203 15.601 1.0406 23.392 1.561 7.948-0.5277 15.888-1.0555 23.819-1.5835z"/>
   </g>
   <g id="g9772" fill-rule="evenodd" transform="matrix(1.2278 0 0 1.1421 -909.67 486.17)" fill="#ffd08d">
    <path id="path9774" d="m875.38 146.22c-7.9189-0.28913-15.852-0.57699-23.798-0.86357-9.7135 1.853-19.448 3.7084-29.203 5.5662-5.0831 1.2066-10.168 2.4137-15.255 3.6211 5.0464-1.366 10.095-2.7325 15.145-4.0993 9.707-2.1633 19.435-4.3289 29.183-6.4969 7.9768 0.0351 15.967 0.0689 23.972 0.10149-0.0146 0.72364-0.0292 1.4473-0.0439 2.1709z"/>
    <path id="path9776" d="m875.1 150.07c-7.9102-0.5276-15.836-1.054-23.777-1.5793h-0.00001c-7.4614 1.4106-14.936 2.822-22.423 4.2342h-0.00001l-23.712 3.74 23.576-4.463c7.471-1.6438 14.955-3.2884 22.452-4.9338 7.9826 0.27893 15.98 0.5567 23.994 0.83331-0.0365 0.72287-0.073 1.4457-0.10952 2.1686z"/>
    <path id="path9778" d="m875.38 146.22c-7.9189-0.28913-15.852-0.57699-23.798-0.86357-9.7135 1.853-19.448 3.7084-29.203 5.5662-5.0831 1.2066-10.168 2.4137-15.255 3.6211 5.0464-1.366 10.095-2.7325 15.145-4.0993 9.707-2.1633 19.435-4.3289 29.183-6.4969 7.9768 0.0351 15.967 0.0689 23.972 0.10149-0.0146 0.72364-0.0292 1.4473-0.0439 2.1709z"/>
    <path id="path9780" d="m875.1 150.07c-7.9102-0.5276-15.836-1.054-23.777-1.5793h-0.00001c-7.4614 1.4106-14.936 2.822-22.423 4.2342h-0.00001l-23.712 3.74 23.576-4.463c7.471-1.6438 14.955-3.2884 22.452-4.9338 7.9826 0.27893 15.98 0.5567 23.994 0.83331-0.0365 0.72287-0.073 1.4457-0.10952 2.1686z"/>
    <path id="path9782" d="m874.9 152.97c-7.9189-0.28913-15.852-0.57699-23.798-0.86357-9.7135 1.853-19.448 3.7084-29.203 5.5662-5.0831 1.2066-10.168 2.4137-15.255 3.6211 5.0464-1.366 10.095-2.7325 15.145-4.0993 9.707-2.1633 19.435-4.3289 29.183-6.4969 7.9768 0.0351 15.967 0.0689 23.972 0.10149z"/>
    <path id="path9784" d="m874.62 156.83c-7.9102-0.5276-15.836-1.054-23.777-1.5793h-0.00001c-7.4614 1.4106-14.936 2.822-22.423 4.2342h-0.00001l-23.712 3.74 23.576-4.463c7.471-1.6438 14.955-3.2884 22.452-4.9338 7.9826 0.27893 15.98 0.5567 23.994 0.83331z"/>
    <path id="path9786" d="m874.9 152.97c-7.932-0.28608-15.873-0.57165-23.824-0.85671-9.8033 1.1328-19.617 2.2661-29.442 3.4-5.3992 0.55975-10.798 1.1194-16.196 1.6791 5.3782-0.72712 10.756-1.4542 16.133-2.1812 9.7981-1.4396 19.607-2.8798 29.426-4.3205h0.00001c7.9728 0.0366 15.955 0.0727 23.946 0.10836z"/>
    <path id="path9788" d="m874.62 156.83c-7.9102-0.5276-15.836-1.054-23.777-1.5793h-0.00001c-7.4614 1.4106-14.936 2.822-22.423 4.2342h-0.00001l-23.712 3.74 23.576-4.463c7.471-1.6438 14.955-3.2884 22.452-4.9338 7.9826 0.27893 15.98 0.5567 23.994 0.83331z"/>
    <path id="path9790" d="m876.1 157.07c-7.9189-0.28913-15.852-0.57699-23.798-0.86357h-0.00001c-9.7135 1.853-19.448 3.7084-29.203 5.5662-5.0831 1.2066-10.168 2.4137-15.255 3.6211 5.0464-1.366 10.095-2.7325 15.145-4.0993 9.707-2.1633 19.435-4.3289 29.183-6.4969 7.9768 0.0351 15.967 0.0689 23.972 0.10149-0.0146 0.72364-0.0292 1.4473-0.0439 2.1709z"/>
    <path id="path9792" d="m875.9 160.93c-7.8645 0.0381-15.736 0.0766-23.613 0.11563h-0.00001c-7.5501 0.84645-15.109 1.6938-22.677 2.5419h-0.00001c-7.8969 1.245-15.796 2.4904-23.699 3.7362 7.8602-1.4885 15.723-2.9774 23.589-4.4668 7.5514-1.082 15.112-2.1648 22.681-3.2484v-0.00001c7.8851-0.28266 15.777-0.5658 23.675-0.84942 0.0148 0.72364 0.0295 1.4473 0.0443 2.1709z"/>
    <path id="path9794" d="m876.26 157.06c-7.8413 0.84409-15.674 1.6877-23.498 2.5309-9.4416-0.30733-18.868-0.61497-28.279-0.92291-5.7888-0.57361-11.575-1.1471-17.357-1.7204 5.7979 0.39173 11.593 0.78332 17.385 1.1748 9.4073 0.0138 18.799 0.0278 28.176 0.0422h0.00001c7.7776-1.0869 15.547-2.1734 23.307-3.2594 0.0889 0.71831 0.17773 1.4366 0.2666 2.1549z"/>
    <path id="path9796" d="m875.96 160.93c-7.649 0.44522-15.298 0.89042-22.947 1.3356-7.7977 0.44126-15.601 0.88324-23.411 1.326v0.00001c-7.8902 1.2442-15.786 2.4891-23.689 3.7348 7.8602-1.4886 15.727-2.978 23.599-4.4681 7.7922-0.68319 15.59-1.3671 23.394-2.0517 7.6312-0.68069 15.262-1.3614 22.893-2.042z"/>
    <path id="path9798" d="m876.39 168.43c-8.0045 0.0326-15.995 0.0664-23.972 0.10149-9.7484-2.168-19.476-4.3337-29.183-6.4969h-0.00001c-5.05-1.3668-10.098-2.7333-15.145-4.0993l15.255 3.6211v0.00001c9.7549 1.8578 19.489 3.7132 29.203 5.5662 7.9466-0.28658 15.879-0.57444 23.798-0.86357z"/>
    <path id="path9800" d="m876.18 164.57c-8.0133 0.27505-16.011 0.55127-23.993 0.82866-7.4614-1.646-14.927-3.2917-22.397-4.937-7.6161 0.8479-15.252 1.6951-22.907 2.5415 7.625-1.0837 15.27-2.1666 22.933-3.2489h0.00001c7.4881 1.4108 14.981 2.8211 22.478 4.231h0.00001c7.9411-0.52682 15.867-1.0548 23.777-1.584z"/>
    <path id="path9802" d="m876.39 168.43c-8.0045 0.0326-15.995 0.0664-23.972 0.10149-9.7484-2.168-19.476-4.3337-29.183-6.4969h-0.00001c-5.05-1.3668-10.098-2.7333-15.145-4.0993l15.255 3.6211v0.00001c9.7549 1.8578 19.489 3.7132 29.203 5.5662 7.9466-0.28658 15.879-0.57444 23.798-0.86357z"/>
    <path id="path9804" d="m876.18 164.57c-7.9852 0.27786-15.965 0.5557-23.938 0.83352-7.1662-0.43329-14.328-0.86664-21.487-1.3-8.0365-0.28629-16.075-0.57264-24.114-0.85903 8.0446 0.0353 16.091 0.0706 24.139 0.106h0.00001c7.1567 0.20997 14.309 0.41999 21.458 0.63008h0.00001c7.95-0.52639 15.894-1.0528 23.832-1.5791z"/>
    <path id="path9806" d="m876.78 174.22c-11.108-0.90031-22.206-1.7993-33.294-2.6971h-0.00001c-5.8417-1.187-11.86-1.4276-17.864-1.488-5.9946-0.058-12.002-0.64387-17.773-2.2061 5.8168 1.3807 11.809 1.7721 17.77 1.6442 6.0032-0.13068 12.045-0.0795 18.007 0.9345h0.00001c11.109 0.54985 22.207 1.0984 33.295 1.6457z"/>
    <path id="path9808" d="m876.66 170.36c-8.0132 0.27661-16.011 0.55438-23.994 0.83331-7.4969-1.6454-14.981-3.29-22.452-4.9338-7.8567-1.4873-15.715-2.975-23.576-4.463 7.9022 1.2463 15.806 2.493 23.712 3.74h0.00001c7.4873 1.4122 14.962 2.8236 22.423 4.2342h0.00001c7.9408-0.52528 15.866-1.0517 23.777-1.5793z"/>
    <path id="path9810" d="m876.87 174.22c-8.0011 0.0303-15.989 0.0617-23.964 0.0941-7.1316-1.4508-14.517-1.5278-21.861-1.6781-7.3078-0.14484-14.702-0.48578-21.751-2.3966 7.1065 1.6842 14.457 1.7795 21.754 1.6949 7.3163-0.0897 14.692-0.25071 21.972 0.98573h0.00001c7.9482-0.28925 15.884-0.57957 23.806-0.87095z"/>
    <path id="path9812" d="m876.66 170.36c-7.992 0.27626-15.976 0.55264-23.951 0.82916h-0.00001c-7.8102-0.7664-15.614-1.5328-23.413-2.2993h-0.00001c-7.1482-0.43422-14.299-0.86856-21.451-1.303 7.1626 0.20888 14.327 0.4179 21.494 0.62706 7.8033 0.5203 15.601 1.0406 23.392 1.561 7.948-0.5277 15.888-1.0555 23.819-1.5835z"/>
   </g>
   <g id="g9730" fill-rule="evenodd" fill="#b76b37" transform="matrix(1.2278 0 0 1.1421 -909.67 481.21)">
    <path id="path9732" d="m875.38 146.22c-7.9189-0.28913-15.852-0.57699-23.798-0.86357-9.7135 1.853-19.448 3.7084-29.203 5.5662-5.0831 1.2066-10.168 2.4137-15.255 3.6211 5.0464-1.366 10.095-2.7325 15.145-4.0993 9.707-2.1633 19.435-4.3289 29.183-6.4969 7.9768 0.0351 15.967 0.0689 23.972 0.10149-0.0146 0.72364-0.0292 1.4473-0.0439 2.1709z"/>
    <path id="path9734" d="m875.1 150.07c-7.9102-0.5276-15.836-1.054-23.777-1.5793h-0.00001c-7.4614 1.4106-14.936 2.822-22.423 4.2342h-0.00001l-23.712 3.74 23.576-4.463c7.471-1.6438 14.955-3.2884 22.452-4.9338 7.9826 0.27893 15.98 0.5567 23.994 0.83331-0.0365 0.72287-0.073 1.4457-0.10952 2.1686z"/>
    <path id="path9736" d="m875.38 146.22c-7.9189-0.28913-15.852-0.57699-23.798-0.86357-9.7135 1.853-19.448 3.7084-29.203 5.5662-5.0831 1.2066-10.168 2.4137-15.255 3.6211 5.0464-1.366 10.095-2.7325 15.145-4.0993 9.707-2.1633 19.435-4.3289 29.183-6.4969 7.9768 0.0351 15.967 0.0689 23.972 0.10149-0.0146 0.72364-0.0292 1.4473-0.0439 2.1709z"/>
    <path id="path9738" d="m875.1 150.07c-7.9102-0.5276-15.836-1.054-23.777-1.5793h-0.00001c-7.4614 1.4106-14.936 2.822-22.423 4.2342h-0.00001l-23.712 3.74 23.576-4.463c7.471-1.6438 14.955-3.2884 22.452-4.9338 7.9826 0.27893 15.98 0.5567 23.994 0.83331-0.0365 0.72287-0.073 1.4457-0.10952 2.1686z"/>
    <path id="path9740" d="m874.9 152.97c-7.9189-0.28913-15.852-0.57699-23.798-0.86357-9.7135 1.853-19.448 3.7084-29.203 5.5662-5.0831 1.2066-10.168 2.4137-15.255 3.6211 5.0464-1.366 10.095-2.7325 15.145-4.0993 9.707-2.1633 19.435-4.3289 29.183-6.4969 7.9768 0.0351 15.967 0.0689 23.972 0.10149z"/>
    <path id="path9742" d="m874.62 156.83c-7.9102-0.5276-15.836-1.054-23.777-1.5793h-0.00001c-7.4614 1.4106-14.936 2.822-22.423 4.2342h-0.00001l-23.712 3.74 23.576-4.463c7.471-1.6438 14.955-3.2884 22.452-4.9338 7.9826 0.27893 15.98 0.5567 23.994 0.83331z"/>
    <path id="path9744" d="m874.9 152.97c-7.932-0.28608-15.873-0.57165-23.824-0.85671-9.8033 1.1328-19.617 2.2661-29.442 3.4-5.3992 0.55975-10.798 1.1194-16.196 1.6791 5.3782-0.72712 10.756-1.4542 16.133-2.1812 9.7981-1.4396 19.607-2.8798 29.426-4.3205h0.00001c7.9728 0.0366 15.955 0.0727 23.946 0.10836z"/>
    <path id="path9746" d="m874.62 156.83c-7.9102-0.5276-15.836-1.054-23.777-1.5793h-0.00001c-7.4614 1.4106-14.936 2.822-22.423 4.2342h-0.00001l-23.712 3.74 23.576-4.463c7.471-1.6438 14.955-3.2884 22.452-4.9338 7.9826 0.27893 15.98 0.5567 23.994 0.83331z"/>
    <path id="path9748" d="m876.1 157.07c-7.9189-0.28913-15.852-0.57699-23.798-0.86357h-0.00001c-9.7135 1.853-19.448 3.7084-29.203 5.5662-5.0831 1.2066-10.168 2.4137-15.255 3.6211 5.0464-1.366 10.095-2.7325 15.145-4.0993 9.707-2.1633 19.435-4.3289 29.183-6.4969 7.9768 0.0351 15.967 0.0689 23.972 0.10149-0.0146 0.72364-0.0292 1.4473-0.0439 2.1709z"/>
    <path id="path9750" d="m875.9 160.93c-7.8645 0.0381-15.736 0.0766-23.613 0.11563h-0.00001c-7.5501 0.84645-15.109 1.6938-22.677 2.5419h-0.00001c-7.8969 1.245-15.796 2.4904-23.699 3.7362 7.8602-1.4885 15.723-2.9774 23.589-4.4668 7.5514-1.082 15.112-2.1648 22.681-3.2484v-0.00001c7.8851-0.28266 15.777-0.5658 23.675-0.84942 0.0148 0.72364 0.0295 1.4473 0.0443 2.1709z"/>
    <path id="path9752" d="m876.26 157.06c-7.8413 0.84409-15.674 1.6877-23.498 2.5309-9.4416-0.30733-18.868-0.61497-28.279-0.92291-5.7888-0.57361-11.575-1.1471-17.357-1.7204 5.7979 0.39173 11.593 0.78332 17.385 1.1748 9.4073 0.0138 18.799 0.0278 28.176 0.0422h0.00001c7.7776-1.0869 15.547-2.1734 23.307-3.2594 0.0889 0.71831 0.17773 1.4366 0.2666 2.1549z"/>
    <path id="path9754" d="m875.96 160.93c-7.649 0.44522-15.298 0.89042-22.947 1.3356-7.7977 0.44126-15.601 0.88324-23.411 1.326v0.00001c-7.8902 1.2442-15.786 2.4891-23.689 3.7348 7.8602-1.4886 15.727-2.978 23.599-4.4681 7.7922-0.68319 15.59-1.3671 23.394-2.0517 7.6312-0.68069 15.262-1.3614 22.893-2.042z"/>
    <path id="path9756" d="m876.39 168.43c-8.0045 0.0326-15.995 0.0664-23.972 0.10149-9.7484-2.168-19.476-4.3337-29.183-6.4969h-0.00001c-5.05-1.3668-10.098-2.7333-15.145-4.0993l15.255 3.6211v0.00001c9.7549 1.8578 19.489 3.7132 29.203 5.5662 7.9466-0.28658 15.879-0.57444 23.798-0.86357z"/>
    <path id="path9758" d="m876.18 164.57c-8.0133 0.27505-16.011 0.55127-23.993 0.82866-7.4614-1.646-14.927-3.2917-22.397-4.937-7.6161 0.8479-15.252 1.6951-22.907 2.5415 7.625-1.0837 15.27-2.1666 22.933-3.2489h0.00001c7.4881 1.4108 14.981 2.8211 22.478 4.231h0.00001c7.9411-0.52682 15.867-1.0548 23.777-1.584z"/>
    <path id="path9760" d="m876.39 168.43c-8.0045 0.0326-15.995 0.0664-23.972 0.10149-9.7484-2.168-19.476-4.3337-29.183-6.4969h-0.00001c-5.05-1.3668-10.098-2.7333-15.145-4.0993l15.255 3.6211v0.00001c9.7549 1.8578 19.489 3.7132 29.203 5.5662 7.9466-0.28658 15.879-0.57444 23.798-0.86357z"/>
    <path id="path9762" d="m876.18 164.57c-7.9852 0.27786-15.965 0.5557-23.938 0.83352-7.1662-0.43329-14.328-0.86664-21.487-1.3-8.0365-0.28629-16.075-0.57264-24.114-0.85903 8.0446 0.0353 16.091 0.0706 24.139 0.106h0.00001c7.1567 0.20997 14.309 0.41999 21.458 0.63008h0.00001c7.95-0.52639 15.894-1.0528 23.832-1.5791z"/>
    <path id="path9764" d="m876.78 174.22c-11.108-0.90031-22.206-1.7993-33.294-2.6971h-0.00001c-5.8417-1.187-11.86-1.4276-17.864-1.488-5.9946-0.058-12.002-0.64387-17.773-2.2061 5.8168 1.3807 11.809 1.7721 17.77 1.6442 6.0032-0.13068 12.045-0.0795 18.007 0.9345h0.00001c11.109 0.54985 22.207 1.0984 33.295 1.6457z"/>
    <path id="path9766" d="m876.66 170.36c-8.0132 0.27661-16.011 0.55438-23.994 0.83331-7.4969-1.6454-14.981-3.29-22.452-4.9338-7.8567-1.4873-15.715-2.975-23.576-4.463 7.9022 1.2463 15.806 2.493 23.712 3.74h0.00001c7.4873 1.4122 14.962 2.8236 22.423 4.2342h0.00001c7.9408-0.52528 15.866-1.0517 23.777-1.5793z"/>
    <path id="path9768" d="m876.87 174.22c-8.0011 0.0303-15.989 0.0617-23.964 0.0941-7.1316-1.4508-14.517-1.5278-21.861-1.6781-7.3078-0.14484-14.702-0.48578-21.751-2.3966 7.1065 1.6842 14.457 1.7795 21.754 1.6949 7.3163-0.0897 14.692-0.25071 21.972 0.98573h0.00001c7.9482-0.28925 15.884-0.57957 23.806-0.87095z"/>
    <path id="path9770" d="m876.66 170.36c-7.992 0.27626-15.976 0.55264-23.951 0.82916h-0.00001c-7.8102-0.7664-15.614-1.5328-23.413-2.2993h-0.00001c-7.1482-0.43422-14.299-0.86856-21.451-1.303 7.1626 0.20888 14.327 0.4179 21.494 0.62706 7.8033 0.5203 15.601 1.0406 23.392 1.561 7.948-0.5277 15.888-1.0555 23.819-1.5835z"/>
   </g>
   <g id="g12494" fill-rule="evenodd" transform="matrix(1.3334 0 0 1.1421 -1000.7 533.01)" fill="#ffd08d">
    <path id="path12496" d="m875.38 146.22c-7.9189-0.28913-15.852-0.57699-23.798-0.86357-9.7135 1.853-19.448 3.7084-29.203 5.5662-5.0831 1.2066-10.168 2.4137-15.255 3.6211 5.0464-1.366 10.095-2.7325 15.145-4.0993 9.707-2.1633 19.435-4.3289 29.183-6.4969 7.9768 0.0351 15.967 0.0689 23.972 0.10149-0.0146 0.72364-0.0292 1.4473-0.0439 2.1709z"/>
    <path id="path12498" d="m875.1 150.07c-7.9102-0.5276-15.836-1.054-23.777-1.5793h-0.00001c-7.4614 1.4106-14.936 2.822-22.423 4.2342h-0.00001l-23.712 3.74 23.576-4.463c7.471-1.6438 14.955-3.2884 22.452-4.9338 7.9826 0.27893 15.98 0.5567 23.994 0.83331-0.0365 0.72287-0.073 1.4457-0.10952 2.1686z"/>
    <path id="path12500" d="m875.38 146.22c-7.9189-0.28913-15.852-0.57699-23.798-0.86357-9.7135 1.853-19.448 3.7084-29.203 5.5662-5.0831 1.2066-10.168 2.4137-15.255 3.6211 5.0464-1.366 10.095-2.7325 15.145-4.0993 9.707-2.1633 19.435-4.3289 29.183-6.4969 7.9768 0.0351 15.967 0.0689 23.972 0.10149-0.0146 0.72364-0.0292 1.4473-0.0439 2.1709z"/>
    <path id="path12502" d="m875.1 150.07c-7.9102-0.5276-15.836-1.054-23.777-1.5793h-0.00001c-7.4614 1.4106-14.936 2.822-22.423 4.2342h-0.00001l-23.712 3.74 23.576-4.463c7.471-1.6438 14.955-3.2884 22.452-4.9338 7.9826 0.27893 15.98 0.5567 23.994 0.83331-0.0365 0.72287-0.073 1.4457-0.10952 2.1686z"/>
    <path id="path12504" d="m874.9 152.97c-7.9189-0.28913-15.852-0.57699-23.798-0.86357-9.7135 1.853-19.448 3.7084-29.203 5.5662-5.0831 1.2066-10.168 2.4137-15.255 3.6211 5.0464-1.366 10.095-2.7325 15.145-4.0993 9.707-2.1633 19.435-4.3289 29.183-6.4969 7.9768 0.0351 15.967 0.0689 23.972 0.10149z"/>
    <path id="path12506" d="m874.62 156.83c-7.9102-0.5276-15.836-1.054-23.777-1.5793h-0.00001c-7.4614 1.4106-14.936 2.822-22.423 4.2342h-0.00001l-23.712 3.74 23.576-4.463c7.471-1.6438 14.955-3.2884 22.452-4.9338 7.9826 0.27893 15.98 0.5567 23.994 0.83331z"/>
    <path id="path12508" d="m874.9 152.97c-7.932-0.28608-15.873-0.57165-23.824-0.85671-9.8033 1.1328-19.617 2.2661-29.442 3.4-5.3992 0.55975-10.798 1.1194-16.196 1.6791 5.3782-0.72712 10.756-1.4542 16.133-2.1812 9.7981-1.4396 19.607-2.8798 29.426-4.3205h0.00001c7.9728 0.0366 15.955 0.0727 23.946 0.10836z"/>
    <path id="path12510" d="m874.62 156.83c-7.9102-0.5276-15.836-1.054-23.777-1.5793h-0.00001c-7.4614 1.4106-14.936 2.822-22.423 4.2342h-0.00001l-23.712 3.74 23.576-4.463c7.471-1.6438 14.955-3.2884 22.452-4.9338 7.9826 0.27893 15.98 0.5567 23.994 0.83331z"/>
    <path id="path12512" d="m876.1 157.07c-7.9189-0.28913-15.852-0.57699-23.798-0.86357h-0.00001c-9.7135 1.853-19.448 3.7084-29.203 5.5662-5.0831 1.2066-10.168 2.4137-15.255 3.6211 5.0464-1.366 10.095-2.7325 15.145-4.0993 9.707-2.1633 19.435-4.3289 29.183-6.4969 7.9768 0.0351 15.967 0.0689 23.972 0.10149-0.0146 0.72364-0.0292 1.4473-0.0439 2.1709z"/>
    <path id="path12514" d="m875.9 160.93c-7.8645 0.0381-15.736 0.0766-23.613 0.11563h-0.00001c-7.5501 0.84645-15.109 1.6938-22.677 2.5419h-0.00001c-7.8969 1.245-15.796 2.4904-23.699 3.7362 7.8602-1.4885 15.723-2.9774 23.589-4.4668 7.5514-1.082 15.112-2.1648 22.681-3.2484v-0.00001c7.8851-0.28266 15.777-0.5658 23.675-0.84942 0.0148 0.72364 0.0295 1.4473 0.0443 2.1709z"/>
    <path id="path12516" d="m876.26 157.06c-7.8413 0.84409-15.674 1.6877-23.498 2.5309-9.4416-0.30733-18.868-0.61497-28.279-0.92291-5.7888-0.57361-11.575-1.1471-17.357-1.7204 5.7979 0.39173 11.593 0.78332 17.385 1.1748 9.4073 0.0138 18.799 0.0278 28.176 0.0422h0.00001c7.7776-1.0869 15.547-2.1734 23.307-3.2594 0.0889 0.71831 0.17773 1.4366 0.2666 2.1549z"/>
    <path id="path12518" d="m875.96 160.93c-7.649 0.44522-15.298 0.89042-22.947 1.3356-7.7977 0.44126-15.601 0.88324-23.411 1.326v0.00001c-7.8902 1.2442-15.786 2.4891-23.689 3.7348 7.8602-1.4886 15.727-2.978 23.599-4.4681 7.7922-0.68319 15.59-1.3671 23.394-2.0517 7.6312-0.68069 15.262-1.3614 22.893-2.042z"/>
    <path id="path12520" d="m876.39 168.43c-8.0045 0.0326-15.995 0.0664-23.972 0.10149-9.7484-2.168-19.476-4.3337-29.183-6.4969h-0.00001c-5.05-1.3668-10.098-2.7333-15.145-4.0993l15.255 3.6211v0.00001c9.7549 1.8578 19.489 3.7132 29.203 5.5662 7.9466-0.28658 15.879-0.57444 23.798-0.86357z"/>
    <path id="path12522" d="m876.18 164.57c-8.0133 0.27505-16.011 0.55127-23.993 0.82866-7.4614-1.646-14.927-3.2917-22.397-4.937-7.6161 0.8479-15.252 1.6951-22.907 2.5415 7.625-1.0837 15.27-2.1666 22.933-3.2489h0.00001c7.4881 1.4108 14.981 2.8211 22.478 4.231h0.00001c7.9411-0.52682 15.867-1.0548 23.777-1.584z"/>
    <path id="path12524" d="m876.39 168.43c-8.0045 0.0326-15.995 0.0664-23.972 0.10149-9.7484-2.168-19.476-4.3337-29.183-6.4969h-0.00001c-5.05-1.3668-10.098-2.7333-15.145-4.0993l15.255 3.6211v0.00001c9.7549 1.8578 19.489 3.7132 29.203 5.5662 7.9466-0.28658 15.879-0.57444 23.798-0.86357z"/>
    <path id="path12526" d="m876.18 164.57c-7.9852 0.27786-15.965 0.5557-23.938 0.83352-7.1662-0.43329-14.328-0.86664-21.487-1.3-8.0365-0.28629-16.075-0.57264-24.114-0.85903 8.0446 0.0353 16.091 0.0706 24.139 0.106h0.00001c7.1567 0.20997 14.309 0.41999 21.458 0.63008h0.00001c7.95-0.52639 15.894-1.0528 23.832-1.5791z"/>
    <path id="path12528" d="m876.78 174.22c-11.108-0.90031-22.206-1.7993-33.294-2.6971h-0.00001c-5.8417-1.187-11.86-1.4276-17.864-1.488-5.9946-0.058-12.002-0.64387-17.773-2.2061 5.8168 1.3807 11.809 1.7721 17.77 1.6442 6.0032-0.13068 12.045-0.0795 18.007 0.9345h0.00001c11.109 0.54985 22.207 1.0984 33.295 1.6457z"/>
    <path id="path12530" d="m876.66 170.36c-8.0132 0.27661-16.011 0.55438-23.994 0.83331-7.4969-1.6454-14.981-3.29-22.452-4.9338-7.8567-1.4873-15.715-2.975-23.576-4.463 7.9022 1.2463 15.806 2.493 23.712 3.74h0.00001c7.4873 1.4122 14.962 2.8236 22.423 4.2342h0.00001c7.9408-0.52528 15.866-1.0517 23.777-1.5793z"/>
    <path id="path12532" d="m876.87 174.22c-8.0011 0.0303-15.989 0.0617-23.964 0.0941-7.1316-1.4508-14.517-1.5278-21.861-1.6781-7.3078-0.14484-14.702-0.48578-21.751-2.3966 7.1065 1.6842 14.457 1.7795 21.754 1.6949 7.3163-0.0897 14.692-0.25071 21.972 0.98573h0.00001c7.9482-0.28925 15.884-0.57957 23.806-0.87095z"/>
    <path id="path12534" d="m876.66 170.36c-7.992 0.27626-15.976 0.55264-23.951 0.82916h-0.00001c-7.8102-0.7664-15.614-1.5328-23.413-2.2993h-0.00001c-7.1482-0.43422-14.299-0.86856-21.451-1.303 7.1626 0.20888 14.327 0.4179 21.494 0.62706 7.8033 0.5203 15.601 1.0406 23.392 1.561 7.948-0.5277 15.888-1.0555 23.819-1.5835z"/>
   </g>
   <path id="path9395" d="m161.72 728.81-18.805 1.6533-26.436-4.1331-25.346-6.613-7.6311-0.55108c4.4978 2.9921 9.6049 4.9694 14.827 6.3515 4.7449 1.2557 9.601 2.0624 14.334 3.3613l-28.071-6.2686 13.627 5.8553h-0.000013l-13.899-1.0333 36.793 9.3684h0.00001l23.166-0.82662h0.00001l18.26-3.8576z" fill-rule="evenodd" fill="#b76b37"/>
   <g id="g12578" fill-rule="evenodd" transform="matrix(1.2278 0 0 1.1421 -911.57 463.85)" fill="#ffd08d">
    <path id="path12580" d="m875.38 146.22c-7.9189-0.28913-15.852-0.57699-23.798-0.86357-9.7135 1.853-19.448 3.7084-29.203 5.5662-5.0831 1.2066-10.168 2.4137-15.255 3.6211 5.0464-1.366 10.095-2.7325 15.145-4.0993 9.707-2.1633 19.435-4.3289 29.183-6.4969 7.9768 0.0351 15.967 0.0689 23.972 0.10149-0.0146 0.72364-0.0292 1.4473-0.0439 2.1709z"/>
    <path id="path12582" d="m875.1 150.07c-7.9102-0.5276-15.836-1.054-23.777-1.5793h-0.00001c-7.4614 1.4106-14.936 2.822-22.423 4.2342h-0.00001l-23.712 3.74 23.576-4.463c7.471-1.6438 14.955-3.2884 22.452-4.9338 7.9826 0.27893 15.98 0.5567 23.994 0.83331-0.0365 0.72287-0.073 1.4457-0.10952 2.1686z"/>
    <path id="path12584" d="m875.38 146.22c-7.9189-0.28913-15.852-0.57699-23.798-0.86357-9.7135 1.853-19.448 3.7084-29.203 5.5662-5.0831 1.2066-10.168 2.4137-15.255 3.6211 5.0464-1.366 10.095-2.7325 15.145-4.0993 9.707-2.1633 19.435-4.3289 29.183-6.4969 7.9768 0.0351 15.967 0.0689 23.972 0.10149-0.0146 0.72364-0.0292 1.4473-0.0439 2.1709z"/>
    <path id="path12586" d="m875.1 150.07c-7.9102-0.5276-15.836-1.054-23.777-1.5793h-0.00001c-7.4614 1.4106-14.936 2.822-22.423 4.2342h-0.00001l-23.712 3.74 23.576-4.463c7.471-1.6438 14.955-3.2884 22.452-4.9338 7.9826 0.27893 15.98 0.5567 23.994 0.83331-0.0365 0.72287-0.073 1.4457-0.10952 2.1686z"/>
    <path id="path12588" d="m874.9 152.97c-7.9189-0.28913-15.852-0.57699-23.798-0.86357-9.7135 1.853-19.448 3.7084-29.203 5.5662-5.0831 1.2066-10.168 2.4137-15.255 3.6211 5.0464-1.366 10.095-2.7325 15.145-4.0993 9.707-2.1633 19.435-4.3289 29.183-6.4969 7.9768 0.0351 15.967 0.0689 23.972 0.10149z"/>
    <path id="path12590" d="m874.62 156.83c-7.9102-0.5276-15.836-1.054-23.777-1.5793h-0.00001c-7.4614 1.4106-14.936 2.822-22.423 4.2342h-0.00001l-23.712 3.74 23.576-4.463c7.471-1.6438 14.955-3.2884 22.452-4.9338 7.9826 0.27893 15.98 0.5567 23.994 0.83331z"/>
    <path id="path12592" d="m874.9 152.97c-7.932-0.28608-15.873-0.57165-23.824-0.85671-9.8033 1.1328-19.617 2.2661-29.442 3.4-5.3992 0.55975-10.798 1.1194-16.196 1.6791 5.3782-0.72712 10.756-1.4542 16.133-2.1812 9.7981-1.4396 19.607-2.8798 29.426-4.3205h0.00001c7.9728 0.0366 15.955 0.0727 23.946 0.10836z"/>
    <path id="path12594" d="m874.62 156.83c-7.9102-0.5276-15.836-1.054-23.777-1.5793h-0.00001c-7.4614 1.4106-14.936 2.822-22.423 4.2342h-0.00001l-23.712 3.74 23.576-4.463c7.471-1.6438 14.955-3.2884 22.452-4.9338 7.9826 0.27893 15.98 0.5567 23.994 0.83331z"/>
    <path id="path12596" d="m876.1 157.07c-7.9189-0.28913-15.852-0.57699-23.798-0.86357h-0.00001c-9.7135 1.853-19.448 3.7084-29.203 5.5662-5.0831 1.2066-10.168 2.4137-15.255 3.6211 5.0464-1.366 10.095-2.7325 15.145-4.0993 9.707-2.1633 19.435-4.3289 29.183-6.4969 7.9768 0.0351 15.967 0.0689 23.972 0.10149-0.0146 0.72364-0.0292 1.4473-0.0439 2.1709z"/>
    <path id="path12598" d="m875.9 160.93c-7.8645 0.0381-15.736 0.0766-23.613 0.11563h-0.00001c-7.5501 0.84645-15.109 1.6938-22.677 2.5419h-0.00001c-7.8969 1.245-15.796 2.4904-23.699 3.7362 7.8602-1.4885 15.723-2.9774 23.589-4.4668 7.5514-1.082 15.112-2.1648 22.681-3.2484v-0.00001c7.8851-0.28266 15.777-0.5658 23.675-0.84942 0.0148 0.72364 0.0295 1.4473 0.0443 2.1709z"/>
    <path id="path12600" d="m876.26 157.06c-7.8413 0.84409-15.674 1.6877-23.498 2.5309-9.4416-0.30733-18.868-0.61497-28.279-0.92291-5.7888-0.57361-11.575-1.1471-17.357-1.7204 5.7979 0.39173 11.593 0.78332 17.385 1.1748 9.4073 0.0138 18.799 0.0278 28.176 0.0422h0.00001c7.7776-1.0869 15.547-2.1734 23.307-3.2594 0.0889 0.71831 0.17773 1.4366 0.2666 2.1549z"/>
    <path id="path12602" d="m875.96 160.93c-7.649 0.44522-15.298 0.89042-22.947 1.3356-7.7977 0.44126-15.601 0.88324-23.411 1.326v0.00001c-7.8902 1.2442-15.786 2.4891-23.689 3.7348 7.8602-1.4886 15.727-2.978 23.599-4.4681 7.7922-0.68319 15.59-1.3671 23.394-2.0517 7.6312-0.68069 15.262-1.3614 22.893-2.042z"/>
    <path id="path12604" d="m876.39 168.43c-8.0045 0.0326-15.995 0.0664-23.972 0.10149-9.7484-2.168-19.476-4.3337-29.183-6.4969h-0.00001c-5.05-1.3668-10.098-2.7333-15.145-4.0993l15.255 3.6211v0.00001c9.7549 1.8578 19.489 3.7132 29.203 5.5662 7.9466-0.28658 15.879-0.57444 23.798-0.86357z"/>
    <path id="path12606" d="m876.18 164.57c-8.0133 0.27505-16.011 0.55127-23.993 0.82866-7.4614-1.646-14.927-3.2917-22.397-4.937-7.6161 0.8479-15.252 1.6951-22.907 2.5415 7.625-1.0837 15.27-2.1666 22.933-3.2489h0.00001c7.4881 1.4108 14.981 2.8211 22.478 4.231h0.00001c7.9411-0.52682 15.867-1.0548 23.777-1.584z"/>
    <path id="path12608" d="m876.39 168.43c-8.0045 0.0326-15.995 0.0664-23.972 0.10149-9.7484-2.168-19.476-4.3337-29.183-6.4969h-0.00001c-5.05-1.3668-10.098-2.7333-15.145-4.0993l15.255 3.6211v0.00001c9.7549 1.8578 19.489 3.7132 29.203 5.5662 7.9466-0.28658 15.879-0.57444 23.798-0.86357z"/>
    <path id="path12610" d="m876.18 164.57c-7.9852 0.27786-15.965 0.5557-23.938 0.83352-7.1662-0.43329-14.328-0.86664-21.487-1.3-8.0365-0.28629-16.075-0.57264-24.114-0.85903 8.0446 0.0353 16.091 0.0706 24.139 0.106h0.00001c7.1567 0.20997 14.309 0.41999 21.458 0.63008h0.00001c7.95-0.52639 15.894-1.0528 23.832-1.5791z"/>
    <path id="path12612" d="m876.78 174.22c-11.108-0.90031-22.206-1.7993-33.294-2.6971h-0.00001c-5.8417-1.187-11.86-1.4276-17.864-1.488-5.9946-0.058-12.002-0.64387-17.773-2.2061 5.8168 1.3807 11.809 1.7721 17.77 1.6442 6.0032-0.13068 12.045-0.0795 18.007 0.9345h0.00001c11.109 0.54985 22.207 1.0984 33.295 1.6457z"/>
    <path id="path12614" d="m876.66 170.36c-8.0132 0.27661-16.011 0.55438-23.994 0.83331-7.4969-1.6454-14.981-3.29-22.452-4.9338-7.8567-1.4873-15.715-2.975-23.576-4.463 7.9022 1.2463 15.806 2.493 23.712 3.74h0.00001c7.4873 1.4122 14.962 2.8236 22.423 4.2342h0.00001c7.9408-0.52528 15.866-1.0517 23.777-1.5793z"/>
    <path id="path12616" d="m876.87 174.22c-8.0011 0.0303-15.989 0.0617-23.964 0.0941-7.1316-1.4508-14.517-1.5278-21.861-1.6781-7.3078-0.14484-14.702-0.48578-21.751-2.3966 7.1065 1.6842 14.457 1.7795 21.754 1.6949 7.3163-0.0897 14.692-0.25071 21.972 0.98573h0.00001c7.9482-0.28925 15.884-0.57957 23.806-0.87095z"/>
    <path id="path12618" d="m876.66 170.36c-7.992 0.27626-15.976 0.55264-23.951 0.82916h-0.00001c-7.8102-0.7664-15.614-1.5328-23.413-2.2993h-0.00001c-7.1482-0.43422-14.299-0.86856-21.451-1.303 7.1626 0.20888 14.327 0.4179 21.494 0.62706 7.8033 0.5203 15.601 1.0406 23.392 1.561 7.948-0.5277 15.888-1.0555 23.819-1.5835z"/>
   </g>
   <g id="g12536" fill-rule="evenodd" fill="#b76b37" transform="matrix(1.2278 0 0 -1.1421 -904.22 827.33)">
    <path id="path12538" d="m875.38 146.22c-7.9189-0.28913-15.852-0.57699-23.798-0.86357-9.7135 1.853-19.448 3.7084-29.203 5.5662-5.0831 1.2066-10.168 2.4137-15.255 3.6211 5.0464-1.366 10.095-2.7325 15.145-4.0993 9.707-2.1633 19.435-4.3289 29.183-6.4969 7.9768 0.0351 15.967 0.0689 23.972 0.10149-0.0146 0.72364-0.0292 1.4473-0.0439 2.1709z"/>
    <path id="path12540" d="m875.1 150.07c-7.9102-0.5276-15.836-1.054-23.777-1.5793h-0.00001c-7.4614 1.4106-14.936 2.822-22.423 4.2342h-0.00001l-23.712 3.74 23.576-4.463c7.471-1.6438 14.955-3.2884 22.452-4.9338 7.9826 0.27893 15.98 0.5567 23.994 0.83331-0.0365 0.72287-0.073 1.4457-0.10952 2.1686z"/>
    <path id="path12542" d="m875.38 146.22c-7.9189-0.28913-15.852-0.57699-23.798-0.86357-9.7135 1.853-19.448 3.7084-29.203 5.5662-5.0831 1.2066-10.168 2.4137-15.255 3.6211 5.0464-1.366 10.095-2.7325 15.145-4.0993 9.707-2.1633 19.435-4.3289 29.183-6.4969 7.9768 0.0351 15.967 0.0689 23.972 0.10149-0.0146 0.72364-0.0292 1.4473-0.0439 2.1709z"/>
    <path id="path12544" d="m875.1 150.07c-7.9102-0.5276-15.836-1.054-23.777-1.5793h-0.00001c-7.4614 1.4106-14.936 2.822-22.423 4.2342h-0.00001l-23.712 3.74 23.576-4.463c7.471-1.6438 14.955-3.2884 22.452-4.9338 7.9826 0.27893 15.98 0.5567 23.994 0.83331-0.0365 0.72287-0.073 1.4457-0.10952 2.1686z"/>
    <path id="path12546" d="m874.9 152.97c-7.9189-0.28913-15.852-0.57699-23.798-0.86357-9.7135 1.853-19.448 3.7084-29.203 5.5662-5.0831 1.2066-10.168 2.4137-15.255 3.6211 5.0464-1.366 10.095-2.7325 15.145-4.0993 9.707-2.1633 19.435-4.3289 29.183-6.4969 7.9768 0.0351 15.967 0.0689 23.972 0.10149z"/>
    <path id="path12548" d="m874.62 156.83c-7.9102-0.5276-15.836-1.054-23.777-1.5793h-0.00001c-7.4614 1.4106-14.936 2.822-22.423 4.2342h-0.00001l-23.712 3.74 23.576-4.463c7.471-1.6438 14.955-3.2884 22.452-4.9338 7.9826 0.27893 15.98 0.5567 23.994 0.83331z"/>
    <path id="path12550" d="m874.9 152.97c-7.932-0.28608-15.873-0.57165-23.824-0.85671-9.8033 1.1328-19.617 2.2661-29.442 3.4-5.3992 0.55975-10.798 1.1194-16.196 1.6791 5.3782-0.72712 10.756-1.4542 16.133-2.1812 9.7981-1.4396 19.607-2.8798 29.426-4.3205h0.00001c7.9728 0.0366 15.955 0.0727 23.946 0.10836z"/>
    <path id="path12552" d="m874.62 156.83c-7.9102-0.5276-15.836-1.054-23.777-1.5793h-0.00001c-7.4614 1.4106-14.936 2.822-22.423 4.2342h-0.00001l-23.712 3.74 23.576-4.463c7.471-1.6438 14.955-3.2884 22.452-4.9338 7.9826 0.27893 15.98 0.5567 23.994 0.83331z"/>
    <path id="path12554" d="m876.1 157.07c-7.9189-0.28913-15.852-0.57699-23.798-0.86357h-0.00001c-9.7135 1.853-19.448 3.7084-29.203 5.5662-5.0831 1.2066-10.168 2.4137-15.255 3.6211 5.0464-1.366 10.095-2.7325 15.145-4.0993 9.707-2.1633 19.435-4.3289 29.183-6.4969 7.9768 0.0351 15.967 0.0689 23.972 0.10149-0.0146 0.72364-0.0292 1.4473-0.0439 2.1709z"/>
    <path id="path12556" d="m875.9 160.93c-7.8645 0.0381-15.736 0.0766-23.613 0.11563h-0.00001c-7.5501 0.84645-15.109 1.6938-22.677 2.5419h-0.00001c-7.8969 1.245-15.796 2.4904-23.699 3.7362 7.8602-1.4885 15.723-2.9774 23.589-4.4668 7.5514-1.082 15.112-2.1648 22.681-3.2484v-0.00001c7.8851-0.28266 15.777-0.5658 23.675-0.84942 0.0148 0.72364 0.0295 1.4473 0.0443 2.1709z"/>
    <path id="path12558" d="m876.26 157.06c-7.8413 0.84409-15.674 1.6877-23.498 2.5309-9.4416-0.30733-18.868-0.61497-28.279-0.92291-5.7888-0.57361-11.575-1.1471-17.357-1.7204 5.7979 0.39173 11.593 0.78332 17.385 1.1748 9.4073 0.0138 18.799 0.0278 28.176 0.0422h0.00001c7.7776-1.0869 15.547-2.1734 23.307-3.2594 0.0889 0.71831 0.17773 1.4366 0.2666 2.1549z"/>
    <path id="path12560" d="m875.96 160.93c-7.649 0.44522-15.298 0.89042-22.947 1.3356-7.7977 0.44126-15.601 0.88324-23.411 1.326v0.00001c-7.8902 1.2442-15.786 2.4891-23.689 3.7348 7.8602-1.4886 15.727-2.978 23.599-4.4681 7.7922-0.68319 15.59-1.3671 23.394-2.0517 7.6312-0.68069 15.262-1.3614 22.893-2.042z"/>
    <path id="path12562" d="m876.39 168.43c-8.0045 0.0326-15.995 0.0664-23.972 0.10149-9.7484-2.168-19.476-4.3337-29.183-6.4969h-0.00001c-5.05-1.3668-10.098-2.7333-15.145-4.0993l15.255 3.6211v0.00001c9.7549 1.8578 19.489 3.7132 29.203 5.5662 7.9466-0.28658 15.879-0.57444 23.798-0.86357z"/>
    <path id="path12564" d="m876.18 164.57c-8.0133 0.27505-16.011 0.55127-23.993 0.82866-7.4614-1.646-14.927-3.2917-22.397-4.937-7.6161 0.8479-15.252 1.6951-22.907 2.5415 7.625-1.0837 15.27-2.1666 22.933-3.2489h0.00001c7.4881 1.4108 14.981 2.8211 22.478 4.231h0.00001c7.9411-0.52682 15.867-1.0548 23.777-1.584z"/>
    <path id="path12566" d="m876.39 168.43c-8.0045 0.0326-15.995 0.0664-23.972 0.10149-9.7484-2.168-19.476-4.3337-29.183-6.4969h-0.00001c-5.05-1.3668-10.098-2.7333-15.145-4.0993l15.255 3.6211v0.00001c9.7549 1.8578 19.489 3.7132 29.203 5.5662 7.9466-0.28658 15.879-0.57444 23.798-0.86357z"/>
    <path id="path12568" d="m876.18 164.57c-7.9852 0.27786-15.965 0.5557-23.938 0.83352-7.1662-0.43329-14.328-0.86664-21.487-1.3-8.0365-0.28629-16.075-0.57264-24.114-0.85903 8.0446 0.0353 16.091 0.0706 24.139 0.106h0.00001c7.1567 0.20997 14.309 0.41999 21.458 0.63008h0.00001c7.95-0.52639 15.894-1.0528 23.832-1.5791z"/>
    <path id="path12570" d="m876.78 174.22c-11.108-0.90031-22.206-1.7993-33.294-2.6971h-0.00001c-5.8417-1.187-11.86-1.4276-17.864-1.488-5.9946-0.058-12.002-0.64387-17.773-2.2061 5.8168 1.3807 11.809 1.7721 17.77 1.6442 6.0032-0.13068 12.045-0.0795 18.007 0.9345h0.00001c11.109 0.54985 22.207 1.0984 33.295 1.6457z"/>
    <path id="path12572" d="m876.66 170.36c-8.0132 0.27661-16.011 0.55438-23.994 0.83331-7.4969-1.6454-14.981-3.29-22.452-4.9338-7.8567-1.4873-15.715-2.975-23.576-4.463 7.9022 1.2463 15.806 2.493 23.712 3.74h0.00001c7.4873 1.4122 14.962 2.8236 22.423 4.2342h0.00001c7.9408-0.52528 15.866-1.0517 23.777-1.5793z"/>
    <path id="path12574" d="m876.87 174.22c-8.0011 0.0303-15.989 0.0617-23.964 0.0941-7.1316-1.4508-14.517-1.5278-21.861-1.6781-7.3078-0.14484-14.702-0.48578-21.751-2.3966 7.1065 1.6842 14.457 1.7795 21.754 1.6949 7.3163-0.0897 14.692-0.25071 21.972 0.98573h0.00001c7.9482-0.28925 15.884-0.57957 23.806-0.87095z"/>
    <path id="path12576" d="m876.66 170.36c-7.992 0.27626-15.976 0.55264-23.951 0.82916h-0.00001c-7.8102-0.7664-15.614-1.5328-23.413-2.2993h-0.00001c-7.1482-0.43422-14.299-0.86856-21.451-1.303 7.1626 0.20888 14.327 0.4179 21.494 0.62706 7.8033 0.5203 15.601 1.0406 23.392 1.561 7.948-0.5277 15.888-1.0555 23.819-1.5835z"/>
   </g>
   <path id="path4885" fill="#004f00" d="m224.43 631.64c-1.8683-0.0827-3.5969 0.24268-4.6597 0.17846-11.774 38.401-11.746 62.401-11.79 99.825l9.4606-0.60676c4.4544-2.5987 5.4056-6.6765 7.1308-8.8154 1.7519-6.6926 3.9039-10.556 5.86-13.848 9.9061-11.839 18.922-10.706 31.03-9.4935l73.779 7.3878c11.21 2.1821 13.222 2.7635 38.16-5.639l41.832-16.988c14.8-10.126 9.775-21.398 3.2476-24.84l-50.622-7.0309c-11.351-2.2213-19.261-1.6401-30.888-0.14276l-81.369 17.809c-13.309-0.4978-14.304-4.9626-20.122-17.274-1.5267-4.2484-2.8465-8.8655-3.4595-13.312-1.0422-5.8322-4.4758-7.0716-7.5897-7.2094zm178.07 38.742c-0.1199 3.4076-4.6066 6.1847-11.701 6.4419-7.0948 0.25719-10.426-2.3028-10.306-5.7104 6.1959-4.5044 21.935-5.8128 22.008-0.73151z"/>
   <path id="path4851" fill="url(#linearGradient7097)" d="m222.62 626.22c-1.1528 0.0618-2.1508 0.18559-2.8594 0.14276-11.774 38.401-11.746 62.401-11.79 99.825l9.4606-0.57105c4.4544-2.5987 5.4056-6.7122 7.1308-8.8511 1.7519-6.6926 3.9039-10.556 5.86-13.848 9.9061-11.839 18.922-10.67 31.03-9.4578l73.779 7.3878c11.21 2.1821 13.222 2.7635 38.16-5.639l41.832-16.988c14.8-10.126 8.0806-16.794 1.5532-20.236l-48.927-11.671c-11.351-2.2213-19.261-1.6401-30.888-0.14277l-81.369 17.809c-13.309-0.4978-14.304-4.9626-20.122-17.274-1.5267-4.2484-2.8465-8.8655-3.4595-13.312-1.2507-6.9986-5.9318-7.3592-9.39-7.1737zm168.6 38.26c7.0948-0.25718 12.757 2.3028 12.638 5.7104-0.1199 3.4076-5.9666 6.3811-13.061 6.6383-7.0948 0.25719-12.757-2.3028-12.638-5.7104 0.1197-3.4076 5.9667-6.3811 13.062-6.6383z"/>
   <g id="g13040" fill-rule="evenodd" fill="#b76b37" transform="matrix(1.2278 0 0 -1.1421 -910.21 895.97)">
    <path id="path13042" d="m875.38 146.22c-7.9189-0.28913-15.852-0.57699-23.798-0.86357-9.7135 1.853-19.448 3.7084-29.203 5.5662-5.0831 1.2066-10.168 2.4137-15.255 3.6211 5.0464-1.366 10.095-2.7325 15.145-4.0993 9.707-2.1633 19.435-4.3289 29.183-6.4969 7.9768 0.0351 15.967 0.0689 23.972 0.10149-0.0146 0.72364-0.0292 1.4473-0.0439 2.1709z"/>
    <path id="path13044" d="m875.1 150.07c-7.9102-0.5276-15.836-1.054-23.777-1.5793h-0.00001c-7.4614 1.4106-14.936 2.822-22.423 4.2342h-0.00001l-23.712 3.74 23.576-4.463c7.471-1.6438 14.955-3.2884 22.452-4.9338 7.9826 0.27893 15.98 0.5567 23.994 0.83331-0.0365 0.72287-0.073 1.4457-0.10952 2.1686z"/>
    <path id="path13046" d="m875.38 146.22c-7.9189-0.28913-15.852-0.57699-23.798-0.86357-9.7135 1.853-19.448 3.7084-29.203 5.5662-5.0831 1.2066-10.168 2.4137-15.255 3.6211 5.0464-1.366 10.095-2.7325 15.145-4.0993 9.707-2.1633 19.435-4.3289 29.183-6.4969 7.9768 0.0351 15.967 0.0689 23.972 0.10149-0.0146 0.72364-0.0292 1.4473-0.0439 2.1709z"/>
    <path id="path13048" d="m875.1 150.07c-7.9102-0.5276-15.836-1.054-23.777-1.5793h-0.00001c-7.4614 1.4106-14.936 2.822-22.423 4.2342h-0.00001l-23.712 3.74 23.576-4.463c7.471-1.6438 14.955-3.2884 22.452-4.9338 7.9826 0.27893 15.98 0.5567 23.994 0.83331-0.0365 0.72287-0.073 1.4457-0.10952 2.1686z"/>
    <path id="path13050" d="m874.9 152.97c-7.9189-0.28913-15.852-0.57699-23.798-0.86357-9.7135 1.853-19.448 3.7084-29.203 5.5662-5.0831 1.2066-10.168 2.4137-15.255 3.6211 5.0464-1.366 10.095-2.7325 15.145-4.0993 9.707-2.1633 19.435-4.3289 29.183-6.4969 7.9768 0.0351 15.967 0.0689 23.972 0.10149z"/>
    <path id="path13052" d="m874.62 156.83c-7.9102-0.5276-15.836-1.054-23.777-1.5793h-0.00001c-7.4614 1.4106-14.936 2.822-22.423 4.2342h-0.00001l-23.712 3.74 23.576-4.463c7.471-1.6438 14.955-3.2884 22.452-4.9338 7.9826 0.27893 15.98 0.5567 23.994 0.83331z"/>
    <path id="path13054" d="m874.9 152.97c-7.932-0.28608-15.873-0.57165-23.824-0.85671-9.8033 1.1328-19.617 2.2661-29.442 3.4-5.3992 0.55975-10.798 1.1194-16.196 1.6791 5.3782-0.72712 10.756-1.4542 16.133-2.1812 9.7981-1.4396 19.607-2.8798 29.426-4.3205h0.00001c7.9728 0.0366 15.955 0.0727 23.946 0.10836z"/>
    <path id="path13056" d="m874.62 156.83c-7.9102-0.5276-15.836-1.054-23.777-1.5793h-0.00001c-7.4614 1.4106-14.936 2.822-22.423 4.2342h-0.00001l-23.712 3.74 23.576-4.463c7.471-1.6438 14.955-3.2884 22.452-4.9338 7.9826 0.27893 15.98 0.5567 23.994 0.83331z"/>
    <path id="path13058" d="m876.1 157.07c-7.9189-0.28913-15.852-0.57699-23.798-0.86357h-0.00001c-9.7135 1.853-19.448 3.7084-29.203 5.5662-5.0831 1.2066-10.168 2.4137-15.255 3.6211 5.0464-1.366 10.095-2.7325 15.145-4.0993 9.707-2.1633 19.435-4.3289 29.183-6.4969 7.9768 0.0351 15.967 0.0689 23.972 0.10149-0.0146 0.72364-0.0292 1.4473-0.0439 2.1709z"/>
    <path id="path13060" d="m875.9 160.93c-7.8645 0.0381-15.736 0.0766-23.613 0.11563h-0.00001c-7.5501 0.84645-15.109 1.6938-22.677 2.5419h-0.00001c-7.8969 1.245-15.796 2.4904-23.699 3.7362 7.8602-1.4885 15.723-2.9774 23.589-4.4668 7.5514-1.082 15.112-2.1648 22.681-3.2484v-0.00001c7.8851-0.28266 15.777-0.5658 23.675-0.84942 0.0148 0.72364 0.0295 1.4473 0.0443 2.1709z"/>
    <path id="path13062" d="m876.26 157.06c-7.8413 0.84409-15.674 1.6877-23.498 2.5309-9.4416-0.30733-18.868-0.61497-28.279-0.92291-5.7888-0.57361-11.575-1.1471-17.357-1.7204 5.7979 0.39173 11.593 0.78332 17.385 1.1748 9.4073 0.0138 18.799 0.0278 28.176 0.0422h0.00001c7.7776-1.0869 15.547-2.1734 23.307-3.2594 0.0889 0.71831 0.17773 1.4366 0.2666 2.1549z"/>
    <path id="path13064" d="m875.96 160.93c-7.649 0.44522-15.298 0.89042-22.947 1.3356-7.7977 0.44126-15.601 0.88324-23.411 1.326v0.00001c-7.8902 1.2442-15.786 2.4891-23.689 3.7348 7.8602-1.4886 15.727-2.978 23.599-4.4681 7.7922-0.68319 15.59-1.3671 23.394-2.0517 7.6312-0.68069 15.262-1.3614 22.893-2.042z"/>
    <path id="path13066" d="m876.39 168.43c-8.0045 0.0326-15.995 0.0664-23.972 0.10149-9.7484-2.168-19.476-4.3337-29.183-6.4969h-0.00001c-5.05-1.3668-10.098-2.7333-15.145-4.0993l15.255 3.6211v0.00001c9.7549 1.8578 19.489 3.7132 29.203 5.5662 7.9466-0.28658 15.879-0.57444 23.798-0.86357z"/>
    <path id="path13068" d="m876.18 164.57c-8.0133 0.27505-16.011 0.55127-23.993 0.82866-7.4614-1.646-14.927-3.2917-22.397-4.937-7.6161 0.8479-15.252 1.6951-22.907 2.5415 7.625-1.0837 15.27-2.1666 22.933-3.2489h0.00001c7.4881 1.4108 14.981 2.8211 22.478 4.231h0.00001c7.9411-0.52682 15.867-1.0548 23.777-1.584z"/>
    <path id="path13070" d="m876.39 168.43c-8.0045 0.0326-15.995 0.0664-23.972 0.10149-9.7484-2.168-19.476-4.3337-29.183-6.4969h-0.00001c-5.05-1.3668-10.098-2.7333-15.145-4.0993l15.255 3.6211v0.00001c9.7549 1.8578 19.489 3.7132 29.203 5.5662 7.9466-0.28658 15.879-0.57444 23.798-0.86357z"/>
    <path id="path13072" d="m876.18 164.57c-7.9852 0.27786-15.965 0.5557-23.938 0.83352-7.1662-0.43329-14.328-0.86664-21.487-1.3-8.0365-0.28629-16.075-0.57264-24.114-0.85903 8.0446 0.0353 16.091 0.0706 24.139 0.106h0.00001c7.1567 0.20997 14.309 0.41999 21.458 0.63008h0.00001c7.95-0.52639 15.894-1.0528 23.832-1.5791z"/>
    <path id="path13074" d="m876.78 174.22c-11.108-0.90031-22.206-1.7993-33.294-2.6971h-0.00001c-5.8417-1.187-11.86-1.4276-17.864-1.488-5.9946-0.058-12.002-0.64387-17.773-2.2061 5.8168 1.3807 11.809 1.7721 17.77 1.6442 6.0032-0.13068 12.045-0.0795 18.007 0.9345h0.00001c11.109 0.54985 22.207 1.0984 33.295 1.6457z"/>
    <path id="path13076" d="m876.66 170.36c-8.0132 0.27661-16.011 0.55438-23.994 0.83331-7.4969-1.6454-14.981-3.29-22.452-4.9338-7.8567-1.4873-15.715-2.975-23.576-4.463 7.9022 1.2463 15.806 2.493 23.712 3.74h0.00001c7.4873 1.4122 14.962 2.8236 22.423 4.2342h0.00001c7.9408-0.52528 15.866-1.0517 23.777-1.5793z"/>
    <path id="path13078" d="m876.87 174.22c-8.0011 0.0303-15.989 0.0617-23.964 0.0941-7.1316-1.4508-14.517-1.5278-21.861-1.6781-7.3078-0.14484-14.702-0.48578-21.751-2.3966 7.1065 1.6842 14.457 1.7795 21.754 1.6949 7.3163-0.0897 14.692-0.25071 21.972 0.98573h0.00001c7.9482-0.28925 15.884-0.57957 23.806-0.87095z"/>
    <path id="path13080" d="m876.66 170.36c-7.992 0.27626-15.976 0.55264-23.951 0.82916h-0.00001c-7.8102-0.7664-15.614-1.5328-23.413-2.2993h-0.00001c-7.1482-0.43422-14.299-0.86856-21.451-1.303 7.1626 0.20888 14.327 0.4179 21.494 0.62706 7.8033 0.5203 15.601 1.0406 23.392 1.561 7.948-0.5277 15.888-1.0555 23.819-1.5835z"/>
   </g>
   <path id="path4853" fill="url(#linearGradient7073)" d="m220.12 626.42c-6.2996 26.145-10.03 65.046-11.34 99.476l-47.049 2.2292c0.6154-33.218 1.8287-65.487 10.425-99.441z"/>
   <path id="path4855" style="block-progression:tb;text-indent:0;color:#000000;text-transform:none" d="m212.49 627c-6.2696 26.02-9.659 65.059-11.003 99.218-0.015 0.40001 2.4505 4.9217 2.4353 5.3208l2.2204-0.0628c0.017-0.47174-2.2215-5.0096-2.2028-5.4826 1.3466-33.999 4.9213-72.742 11.092-98.351l-2.5417-0.64242zm-34.171 1.9986c-8.3349 32.922-9.1572 66.861-9.7784 98.754-0.017 0.81991 0.2237 1.296 0.4942 1.9273 0.2706 0.63119 0.6245 1.2963 0.9532 1.9272 0.3576 0.66907 0.6832 1.0992 1.0161 1.752l2.7757-0.11973-0.1911-0.276c-0.044-0.18801-0.1001-0.2598-0.1412-0.35689-0.082-0.1942-0.1652-0.37901-0.2824-0.60673-0.2344-0.4554-0.5318-1.0361-0.8472-1.6417-0.3155-0.60564-0.626-1.2327-0.8472-1.7488-0.2212-0.51606-0.3134-1.0443-0.3178-0.82088 0.621-31.883 1.4703-65.574 9.7078-98.112l-2.5417-0.67811z" fill="url(#linearGradient7070)"/>
   <path id="path4857" style="block-progression:tb;text-indent:0;color:#000000;text-transform:none" d="m189.94 627c-8.5572 33.8-9.2475 67.418-9.8633 100.18-0.01 0.41965 3.4084 5.2351 3.4006 5.6554l4.1741-0.32483c0.01-0.42465-3.2404-5.3011-3.2324-5.725 0.6153-32.725 1.3051-65.474 9.7218-98.719zm8.7546 1.8559c-6.3384 26.306-9.7019 63.958-11.029 98.329-0.01 0.17762 2.916 4.864 2.9092 5.0415l4.51-0.16105c0.012-0.29208-3.0752-4.7536-3.0638-5.0461 1.3306-34.111 4.7345-71.5 10.91-97.128z" fill="url(#linearGradient7067)"/>
   <path id="path3836" style="block-progression:tb;text-indent:0;color:#000000;text-transform:none" d="m147.1 501.53c-10.319 17.436-15.714 27.601-20.085 49.889-4.6555 23.738-6.0208 44.989 1.287 61.034 20.491 63.277 107.82 29.83 169.28-11.861 32.686-26.332 59.896-62.887 59.896-86.349-2.6749-13.116-8.1887-2.7764-8.2398 0 0 21.725-28.543 55.624-60.405 81.292-38.845 28.682-126.05 68.121-152.54 15.747-6.793-14.913-5.6451-35.747-1.03-59.277 4.3209-22.035 3.5608-20.414 13.647-38.012" stroke="#000" stroke-width=".71139" fill="url(#linearGradient7064)"/>
   <path id="path4718" d="m863.1-80.619 0.62339 78.892c-1.8286 22.892 4.4619 21.546 4.9872 22.926 4.2242-13.177 8.5636-30.393 18.702-28.32 22.11 5.6415 15.218 45.177 23.689 67.429 12.456 22.448 25.867 11.138 31.793-8.0915 4.9201-13.664 10.787-25.562 14.962-39.109 8.3356-11.696 22.714-2.7117 25.078 4.72 3.8375 17.547 1.152 34.51 16.689 28.994 10.051 0.39617 22.572-22.928 24.962-38.434 3.4542-15.137 6.5039-24.159 19.702-26.377 18.333 4.837 8.1945 37.391 10.338 59.417 1.1123 9.5257-3.5779 21.653 2.1041 22.609 9.0444-1.2037 4.3317-6.3209 9.5978-21.26 2.7459-34.121 5.2377-77.484 4.987-114.63-53.334 29.68-166.75 32.724-208.21-8.7658z" transform="matrix(1.1792 0 0 1.2268 -868.48 498.42)" filter="url(#filter4724)" fill="#483737"/>
   <path id="path4768" d="m1014 24.503c-7.1494 17.385-14.568 18.274-22.339 16.278 3.2106 5.5098 5.3758 4.4129 10.443 4.4129 6.2038-2.1203 8.3623-4.7007 10.574-10.575 3.9638-7.6792 3.4909-19.934 5.5656-26.158-2.7776 2.1758-2.7331 12.878-4.2442 16.041z" transform="matrix(1.1792 0 0 1.1922 -868.48 495.3)" filter="url(#filter4774)" fill="#e6d3a9"/>
   <path id="path4894" style="block-progression:tb;text-indent:0;color:#000000;text-transform:none" d="m1072.3 149.91c-3.1703 0.26647-6.6752 1.2818-8.7115 2.4695s-2.6823 2.6051-2.5385 4.343l0.7493 1.3192c-0.2585-2.8487 0.9725-3.8354 2.8547-4.9332s4.6541-2.0354 7.7086-2.2922c3.0543-0.25673 5.0026 0.42891 7.1213 0.92733 2.8213 0.66371 4.1529 3.9393 3.7834 4.7472l0.4354-1.6847c-0.1439-1.7379-1.7027-3.0748-3.9063-3.9062-2.2036-0.83146-4.326-1.2563-7.4964-0.98983z" transform="matrix(1.1296 0 0 1.1421 -820.34 493.06)" filter="url(#filter4913)" fill="#78c100"/>
   <path id="path4917" style="block-progression:tb;text-indent:0;color:#000000;text-transform:none" d="m1099.3 157.59c-3.2891 2.8191-5.0027 5.6599-9.8438 6.7188h-0.031l-0.031 0.0312-34.312 13.594h-0.031c-10.027 3.3405-21.906 6.3251-34.031 3.5312h-0.031-0.062l-63.179-6.5278c-10.103-1.0104-17.428-0.0739-22.291 2.8783-4.8416 2.9394-7.4913 8.8077-10.235 16.396-1.3793 2.7053-2.5982 5.4715-4.3882 7.0032-2.0035 1.6353-4.6945 2.59-9.1562 2.4375l-0.0312 1c4.6205 0.15793 7.6428-0.8598 9.8438-2.6562 2.2009-1.7964 3.571-4.2998 5.125-7.0625v-0.0312l0.0312-0.0312c2.7257-7.5643 5.6242-12.843 10.199-15.62 4.5748-2.7774 10.943-3.1314 20.957-2.13l63.063 5.3438c12.393 2.8256 24.47-0.23992 34.531-3.5938h0.031l34.25-13.594c0.036-0.008 0.058-0.0232 0.094-0.0312 5.0778-1.1471 7.0447-4.1812 10.188-6.875l-0.6562-0.78125z" transform="matrix(1.1296 0 0 1.1421 -820.34 493.06)" filter="url(#filter4931)" fill="#78c100"/>
   <path id="path4935" opacity=".85398" fill="#4d4d4d" d="m208.13 725.97-0.1872 5.4902-44.192 2.2718-2.1534-5.6795z"/>
   <path id="path13109" style="block-progression:tb;text-indent:0;color:#000000;text-transform:none" d="m147.1 501.53c-10.319 17.436-15.714 27.601-20.085 49.889-4.6555 23.738-6.0208 44.989 1.287 61.034 20.491 63.277 107.82 29.83 169.28-11.861 32.686-26.332 59.896-62.887 59.896-86.349-2.6749-13.116-8.1887-2.7764-8.2398 0 0 21.725-28.543 55.624-60.405 81.292-38.845 28.682-126.05 68.121-152.54 15.747-6.793-14.913-5.6451-35.747-1.03-59.277 4.3209-22.035 3.5608-20.414 13.647-38.012" stroke="url(#linearGradient7056)" stroke-width=".71139" fill="url(#linearGradient7054)"/>
   <path id="path3823" d="m406.77 411.44c-1.749 3.7829-256.7 9.5581-255.94 0-18.539-31.774 37.891-56.811 127.97-57.531 81.097-0.64837 144.96 11.18 127.97 57.531z" fill-rule="evenodd" fill="url(#linearGradient7051)"/>
   <path id="path4696" opacity=".66814" d="m399.67 411.44c-1.7012 3.7829-249.7 9.5581-248.96 0-18.033-31.774 21.1-58.484 124.48-57.531 92.499 0.85204 141.01 11.18 124.48 57.531z" fill-rule="evenodd" fill="#500"/>
   <path id="path3821" d="m157.91 410.16s18.589-28.125 120.89-29.701c93.89-1.446 121.7 30.537 121.7 30.537-84.232 29.005-165.23 29.854-242.59-0.8368z" fill-rule="evenodd" fill="#d5b771"/>
   <path id="path4778" d="m274.65 351.6c-74.865 0-137.3 20.403-137.3 45.563s62.438 45.563 137.3 45.563c74.865 0 135.93-21.13 135.93-46.29s-61.068-44.837-135.93-44.837zm1.0096 7.3021c70.691 0 128.01 16.425 128.01 36.697s-57.319 36.697-128.01 36.697c-70.69 0-127.97-16.425-127.97-36.697s57.282-36.697 127.97-36.697z" fill-rule="evenodd" fill="#4d4d4d"/>
   <path id="path3843" d="m141.02 399.19 0.7951 94.053c-2.3322 27.291 8.0493 36.416 8.7193 38.061 7.7461-0.21047 3.3138-48.954 21.495-44.492 17.699 2.7446 21.379 57.84 32.183 84.368 15.887 26.762 31.023 9.2977 38.582-13.627 6.2753-16.29 8.5077-31.801 13.832-47.951 10.632-13.943 25.293-1.9058 28.308 6.9541 4.8945 20.919 10.397 41.142 30.214 34.566 15.37-5.3204 16.035-27.334 19.082-45.821 4.4057-18.046 13.583-36.426 23.853-33.763 30.779 10.155 15.761 90.308 28.624 90.837 16.514-13.818 20.045-113.55 19.878-152.74-68.025 35.384-212.68 39.013-265.57-10.45z" stroke="#866142" stroke-width="1.1857px" fill="url(#linearGradient7045)"/>
   <path id="path3825" d="m275.61 348.7c-75.193 0-137.91 20.403-137.91 45.563s62.712 45.563 137.91 45.563c75.193 0 136.53-21.13 136.53-46.29s-61.336-44.837-136.53-44.837zm1.0141 7.302c71 0 128.57 16.425 128.57 36.697s-57.569 36.697-128.57 36.697c-71 0-128.53-16.425-128.53-36.697s57.533-36.697 128.53-36.697z" fill-rule="evenodd" fill="url(#linearGradient7042)"/>
   <path id="path4760" d="m939.95 292.69c-7.1494 17.385-15.96 18.552-23.731 16.557 3.2106 5.5098 6.7672 4.1346 11.835 4.1346 6.2038-2.1203 7.5275-5.5355 9.7397-11.409 3.9638-7.6792 7.9434-16.873 10.018-23.097-2.7776 2.1758-6.3507 10.652-7.8618 13.815z" transform="matrix(1.1792 0 0 1.1922 -870.36 203.77)" filter="url(#filter4770)" fill="#e6d3a9"/>
   <path id="path5490" d="m277.93 352.2c-75.482 0-134.16 16.019-134.16 41.182s55.249 41.182 130.73 41.182c75.482 0 133.63-15.869 133.63-41.031 0-25.163-54.723-41.332-130.21-41.332zm-0.6939 3.7938c71.273 0 129.06 16.426 129.06 36.7s-57.791 36.7-129.06 36.7c-71.273 0-129.03-16.426-129.03-36.7s57.755-36.7 129.03-36.7z" stroke="#4d4d4d" stroke-width="1.1778" fill="none"/>
   <path id="path4071" d="m155.52 406.12s18.589-17.431 120.89-18.407c93.89-0.89616 114.52 23.164 114.52 23.164-80.638 24.637-158.04 14.263-235.4-4.7574z" fill-rule="evenodd" fill="url(#linearGradient7037)"/>
   <path id="path13095" opacity=".38496" style="block-progression:tb;text-indent:0;color:#000000;text-transform:none" d="m895.52 14.82c-9.1348 15.267-13.911 24.167-17.78 43.682-4.1213 20.785-8.3231 36.433-1.8538 50.482 18.139 55.405 59.338 21.681 113.74-14.824 28.935-23.056 83.182-52.064 83.182-72.607-2.3679-11.484-7.249-2.431-7.2942 0 0 19.022-55.427 45.704-83.633 68.179-34.387 25.114-75.473 64.084-98.927 18.226-6.0134-13.058-2.0042-28.341 2.0813-48.944 3.8251-19.294 3.1522-17.875 12.081-33.283" transform="matrix(1.1296 0 .69287 1.1421 -869.8 493.06)" filter="url(#filter13105)" stroke="#000" stroke-width=".62632" fill="#333"/>
   <path id="path7033" d="m292.51 526.29c-0.2496 7.8884 6.2798 19.79 12.623 21.375 4.2108 1.0527 9.4755 0.43739 12.308-2.4912-16.91 1.3942-20.587-9.9566-24.931-18.884z" filter="url(#filter7320)" fill="#e6d3a9"/>
   <path id="path7324" fill="url(#linearGradient7332)" d="m174.97 727.27 32.658-0.53538 1.6061-23.557-47.113 1.0708v23.021z"/>
   <path id="path7336" d="m164.07 701.97c-9.815 0.0556-19.617 0.11237-29.406 0.17021-11.964-2.4533-23.908-4.9046-35.833-7.3537-0.000002 0-0.000003 0-0.000005-0.00001-6.2051-1.5497-12.409-3.0991-18.61-4.6481l18.713 4.1692h0.000002c11.97 2.1432 23.92 4.2843 35.851 6.4234 9.7611-0.30954 19.509-0.6202 29.244-0.93196z" fill-rule="evenodd" fill="#b76b37"/>
   <path id="path7338" d="m163.8 697.56c-9.8231 0.33399-19.632 0.669-29.426 1.005h-0.00001c-9.1992-1.8623-18.386-3.724-27.561-5.5849h-0.00001l-28.965-5.0464 29.093 4.322c9.1902 1.6293 18.368 3.2578 27.534 4.8857v0.00001c9.7557-0.58247 19.497-1.166 29.224-1.7504z" fill-rule="evenodd" fill="#b76b37"/>
   <path id="path7340" d="m164.07 701.97c-9.815 0.0556-19.617 0.11237-29.406 0.17021-11.964-2.4533-23.908-4.9046-35.833-7.3537-0.000002 0-0.000003 0-0.000005-0.00001-6.2051-1.5497-12.409-3.0991-18.61-4.6481l18.713 4.1692h0.000002c11.97 2.1432 23.92 4.2843 35.851 6.4234 9.7611-0.30954 19.509-0.6202 29.244-0.93196z" fill-rule="evenodd" fill="#b76b37"/>
   <path id="path7344" d="m163.47 694.26c-9.815 0.0556-19.617 0.11237-29.406 0.17022v-0.00001c-11.964-2.4533-23.908-4.9046-35.833-7.3537h-0.000005c-6.2051-1.5497-12.409-3.0991-18.61-4.6481l18.713 4.1692c11.97 2.1432 23.92 4.2843 35.851 6.4234 9.7611-0.30954 19.509-0.6202 29.244-0.93196z" fill-rule="evenodd" fill="#b76b37"/>
   <path id="path7346" d="m163.21 689.85c-9.8231 0.33399-19.632 0.66899-29.426 1.005h-0.00001c-9.1992-1.8623-18.386-3.7239-27.561-5.5849h-0.00001l-28.965-5.0464 29.093 4.322c9.1902 1.6292 18.368 3.2578 27.534 4.8857 9.7556-0.58246 19.497-1.1659 29.224-1.7504z" fill-rule="evenodd" fill="#b76b37"/>
   <path id="path7352" d="m164.96 689.57c-9.815 0.0556-19.617 0.11237-29.406 0.17022-11.964-2.4533-23.908-4.9046-35.833-7.3538-0.000002 0-0.000003 0-0.000004-0.00001-6.2051-1.5497-12.409-3.0991-18.61-4.6481l18.713 4.1692c11.97 2.1432 23.92 4.2843 35.851 6.4234 9.7611-0.30954 19.509-0.6202 29.244-0.93196z" fill-rule="evenodd" fill="#b76b37"/>
   <path id="path7354" d="m164.62 685.16c-9.6919-0.30641-19.378-0.6124-29.058-0.91798-9.2902-1.2206-18.572-2.4405-27.846-3.6596h-0.00001c-9.6618-1.6836-19.321-3.3668-28.978-5.0497l29.08 4.3187c9.289 0.98521 18.57 1.9697 27.842 2.9534h0.00001c9.6728 0.0618 19.34 0.12321 29 0.1842z" fill-rule="evenodd" fill="#b76b37"/>
   <path id="path7358" d="m164.56 685.16c-9.3718-0.76077-18.744-1.5215-28.116-2.2823h-0.00001c-9.5805-0.76453-19.156-1.5284-28.725-2.2917-9.6681-1.6843-19.33-3.3679-28.987-5.0509 9.696 1.4398 19.386 2.879 29.071 4.3175 9.5856 0.52258 19.166 1.0445 28.74 1.5659 9.3883 0.52508 18.777 1.0502 28.165 1.5753z" fill-rule="evenodd" fill="#b76b37"/>
   <path id="path7360" d="m165.21 676.6c-9.7352-0.31176-19.483-0.62241-29.244-0.93195-11.931 2.139-23.881 4.2802-35.851 6.4234l-18.713 4.1693c6.2017-1.549 12.405-3.0984 18.61-4.6481 11.925-2.4492 23.869-4.9004 35.833-7.3538h0.00001c9.789 0.0579 19.591 0.11458 29.406 0.17021z" fill-rule="evenodd" fill="#b76b37"/>
   <path id="path7362" d="m164.88 681.01c-9.727-0.58601-19.468-1.171-29.224-1.755-9.1992 1.6272-18.394 3.2547-27.585 4.8825-9.4024-1.2197-18.787-2.44-28.153-3.661 9.3941 0.98338 18.77 1.9674 28.128 2.9521 9.1744-1.8624 18.345-3.7251 27.511-5.5881h0.00001c9.7942 0.33451 19.603 0.668 29.426 1.0005z" fill-rule="evenodd" fill="#b76b37"/>
   <path id="path7364" d="m165.21 676.6c-9.7352-0.31176-19.483-0.62241-29.244-0.93195-11.931 2.139-23.881 4.2802-35.851 6.4234l-18.713 4.1693c6.2017-1.549 12.405-3.0984 18.61-4.6481 11.925-2.4492 23.869-4.9004 35.833-7.3538h0.00001c9.789 0.0579 19.591 0.11458 29.406 0.17021z" fill-rule="evenodd" fill="#b76b37"/>
   <path id="path7366" d="m164.88 681.01c-9.7532-0.58351-19.512-1.167-29.276-1.7506-8.7796 0.25576-17.563 0.51147-26.35 0.76712-9.8791 0.0582-19.757 0.11637-29.633 0.1745 9.8715-0.30926 19.742-0.61848 29.61-0.92765 8.7884-0.47913 17.581-0.95821 26.376-1.4372h0.00001c9.7859 0.33494 19.577 0.66989 29.374 1.0049z" fill-rule="evenodd" fill="#b76b37"/>
   <path id="path7368" d="m165.89 669.98c-13.616 0.65035-27.243 1.3018-40.878 1.9544-7.3149 1.1715-14.721 1.2413-22.087 1.1059h-0.00001c-7.3146-0.13283-14.662 0.32365-21.818 1.918 7.1125-1.7764 14.475-2.4264 21.821-2.4794 7.3674-0.0553 14.752-0.31435 21.954-1.6609 13.616-1.0007 27.242-2.0024 40.877-3.0053z" fill-rule="evenodd" fill="#b76b37"/>
   <path id="path7372" d="m165.8 669.99c-9.7384-0.31389-19.489-0.62687-29.251-0.93891-8.9326 1.4288-17.978 1.2593-26.96 1.1742h-0.00001c-8.952-0.0806-17.964 0.0402-26.708 1.9858 8.6903-2.1732 17.743-2.5378 26.705-2.6872 9.0083-0.15418 18.062-0.22226 26.856-1.8681 9.7876 0.0553 19.587 0.10976 29.399 0.16325z" fill-rule="evenodd" fill="#b76b37"/>
  </g>
 </g>
</svg>
