<svg xmlns="http://www.w3.org/2000/svg" xmlns:xlink="http://www.w3.org/1999/xlink" preserveAspectRatio="xMidYMid" width="32.03" height="31.94" viewBox="0 0 32.03 31.94">
  <defs>
    <style>
      .cls-1 {
        fill: #fff;
        fill-rule: evenodd;
      }
    </style>
  </defs>
  <path d="M23.244,17.253 L20.376,20.251 C19.868,20.782 18.975,20.378 19.038,19.647 L19.257,17.097 C18.870,17.017 18.493,16.919 18.125,16.803 C18.341,15.887 18.461,14.946 18.461,14.026 C18.461,13.038 18.313,12.121 18.050,11.287 L27.087,11.287 C27.380,11.287 27.617,11.049 27.617,10.756 C27.617,10.463 27.380,10.226 27.087,10.226 L17.631,10.226 C17.231,9.409 16.700,8.702 16.055,8.134 L27.087,8.134 C27.380,8.134 27.617,7.896 27.617,7.603 C27.617,7.310 27.380,7.073 27.087,7.073 L14.373,7.073 C13.580,6.734 12.694,6.550 11.740,6.537 C12.877,2.786 16.910,0.008 21.727,0.008 C27.426,0.008 32.045,3.892 32.045,8.682 C32.045,13.039 28.221,16.635 23.244,17.253 ZM16.869,14.026 C16.869,17.872 14.528,22.050 11.639,22.050 C8.751,22.050 6.409,17.872 6.409,14.026 C6.409,10.181 8.751,8.123 11.639,8.123 C14.528,8.123 16.869,10.181 16.869,14.026 ZM6.562,23.252 L9.924,30.336 L9.263,26.673 C9.193,26.282 9.291,25.879 9.534,25.565 L11.290,23.295 C11.373,23.187 11.503,23.124 11.639,23.124 C11.775,23.124 11.904,23.187 11.988,23.295 L13.744,25.565 C13.987,25.879 14.085,26.282 14.015,26.673 L13.353,30.339 L16.716,23.253 C16.843,22.985 17.152,22.853 17.434,22.948 C19.823,23.747 21.774,25.604 22.616,28.081 L23.199,29.797 C23.366,30.290 23.286,30.833 22.982,31.257 C22.679,31.681 22.189,31.932 21.668,31.932 L1.610,31.932 C1.089,31.932 0.599,31.681 0.296,31.257 C-0.008,30.833 -0.088,30.290 0.079,29.797 L0.662,28.081 C1.504,25.604 3.455,23.747 5.844,22.948 C6.126,22.853 6.434,22.983 6.562,23.252 Z" class="cls-1"/>
</svg>
